(footprint "MICROFIT_1x3" (version 20211014) (generator pcbnew)
  (layer "F.Cu")
  (tedit 5CA3843E)
  (descr "Molex Micro-Fit 3.0 Connector System, 43650-0315 (compatible alternatives: 43650-0316, 43650-0317), 3 Pins per row (http://www.molex.com/pdm_docs/sd/436500215_sd.pdf), generated with kicad-footprint-generator")
  (tags "connector Molex Micro-Fit_3.0 vertical")
  (property "Sheetfile" "Fichier: HOTEND.kicad_sch")
  (property "Sheetname" "HOTEND")
  (attr through_hole)
  (fp_text reference "EZ1" (at 0.9 2.7) (layer "F.SilkS")
    (effects (font (size 1 1) (thickness 0.15)))
    (tstamp 4b33b860-421f-4c84-b31d-5eab58080a44)
  )
  (fp_text value "Conn_01x03" (at 3 4.5) (layer "F.Fab") hide
    (effects (font (size 1 1) (thickness 0.15)))
    (tstamp 774d4aef-b480-4b47-8c12-733cef08b12a)
  )
  (fp_text user "${REFERENCE}" (at 3 1.2) (layer "F.Fab") hide
    (effects (font (size 1 1) (thickness 0.15)))
    (tstamp 7dd4523e-21bb-4b4a-8585-ac8da3981aab)
  )
  (fp_line (start 8.015 -2.58) (end 7.995 -2.58) (layer "F.SilkS") (width 0.12) (tstamp 0298151d-ff22-43e7-b193-e0f1634825b8))
  (fp_line (start 8.015 -2.08) (end 8.015 -2.58) (layer "F.SilkS") (width 0.12) (tstamp 1bf4f79c-69dd-4496-8798-5a1e288969ab))
  (fp_line (start -3.435 -1.065) (end -3.435 2.01) (layer "F.SilkS") (width 0.12) (tstamp 31ad2157-6359-4c46-aaa3-410c2d2a4962))
  (fp_line (start -2.015 -2.08) (end 8.015 -2.08) (layer "F.SilkS") (width 0.12) (tstamp 34ff7de9-a7d7-431f-95c7-dcc510d6a83b))
  (fp_line (start 9.435 2.01) (end 9.435 -1.065) (layer "F.SilkS") (width 0.12) (tstamp 6fd2c4e1-c161-45fc-a16c-6604a645d72c))
  (fp_line (start -2.015 -2.58) (end -2.015 -2.08) (layer "F.SilkS") (width 0.12) (tstamp 9a71f1a9-6e5e-4e34-9651-a0234bef50d0))
  (fp_line (start -3.435 2.01) (end 9.435 2.01) (layer "F.SilkS") (width 0.12) (tstamp aab89c1a-120a-4e17-b04d-9278afd0f964))
  (fp_line (start -1.995 -2.58) (end -2.015 -2.58) (layer "F.SilkS") (width 0.12) (tstamp f2afb38b-e1e9-4e79-b9f8-1417ae23a21f))
  (fp_line (start -3.82 3.8) (end -3.82 -2.97) (layer "F.CrtYd") (width 0.05) (tstamp 7e5ab5d1-b363-491a-932d-ca2e58639c7c))
  (fp_line (start 9.82 -2.97) (end 9.82 3.8) (layer "F.CrtYd") (width 0.05) (tstamp e96829e0-be80-4d28-b270-a06b0b8717cf))
  (fp_line (start 9.82 3.8) (end -3.82 3.8) (layer "F.CrtYd") (width 0.05) (tstamp eb37635d-6d32-4884-bfec-a1c42fc8a86d))
  (fp_line (start -3.82 -2.97) (end 9.82 -2.97) (layer "F.CrtYd") (width 0.05) (tstamp f7924a5d-585a-447c-ba77-c56853cef3bf))
  (fp_line (start 2.3 3.3) (end 3.7 3.3) (layer "F.Fab") (width 0.1) (tstamp 146f12af-12f6-4a4b-91c9-5f963ea35fc0))
  (fp_line (start -0.5 -1.97) (end 0 -1.262893) (layer "F.Fab") (width 0.1) (tstamp 28ac11a5-851b-49c1-80f6-2d6109a4d750))
  (fp_line (start 9.325 -2.47) (end 8.125 -2.47) (layer "F.Fab") (width 0.1) (tstamp 42abf3b7-3965-44b6-b8de-84952355c3de))
  (fp_line (start 8.125 -1.97) (end -2.125 -1.97) (layer "F.Fab") (width 0.1) (tstamp 5404d2d1-aaa9-4ae8-a819-56095ad085aa))
  (fp_line (start -3.325 -1.34) (end -2.125 -1.97) (layer "F.Fab") (width 0.1) (tstamp 5898f981-312e-4fdf-aa49-ebcf9a6a6db4))
  (fp_line (start 8.125 -2.47) (end 8.125 -1.97) (layer "F.Fab") (width 0.1) (tstamp 66ccaf15-7de0-45ba-8975-7617a39822b1))
  (fp_line (start 2.3 1.9) (end 2.3 3.3) (layer "F.Fab") (width 0.1) (tstamp 676edf8c-8768-483f-bb57-072853c7b9a5))
  (fp_line (start -3.325 1.9) (end 9.325 1.9) (layer "F.Fab") (width 0.1) (tstamp 8325ec3b-a6d5-4a30-be5e-e15c806ebe2e))
  (fp_line (start 9.325 -1.34) (end 8.125 -1.97) (layer "F.Fab") (width 0.1) (tstamp 9a779f0a-b33b-4a38-a1ff-e1fbbd57eb57))
  (fp_line (start -2.125 -2.47) (end -3.325 -2.47) (layer "F.Fab") (width 0.1) (tstamp b4f6bada-c55e-4723-b228-d84b8ce43df5))
  (fp_line (start 9.325 1.9) (end 9.325 -2.47) (layer "F.Fab") (width 0.1) (tstamp c101ed48-3504-4429-b16b-0c79a5d3e080))
  (fp_line (start -2.125 -1.97) (end -2.125 -2.47) (layer "F.Fab") (width 0.1) (tstamp c968e8c3-dbf9-4045-a85f-fd35d4df861c))
  (fp_line (start 0 -1.262893) (end 0.5 -1.97) (layer "F.Fab") (width 0.1) (tstamp d8f51387-ccd3-487e-ba53-7eda82cd2901))
  (fp_line (start 3.7 3.3) (end 3.7 1.9) (layer "F.Fab") (width 0.1) (tstamp dbf4df31-f772-4251-9615-a634f79456a8))
  (fp_line (start -3.325 -2.47) (end -3.325 1.9) (layer "F.Fab") (width 0.1) (tstamp f812269f-23c6-4b13-b08d-c06872d2a615))
  (pad "" np_thru_hole circle (at -3 -1.96) (size 1.27 1.27) (drill 1.27) (layers *.Cu *.Mask) (tstamp 0de983b3-0528-4c71-b5da-03d273353bc2))
  (pad "" np_thru_hole circle (at 9 -1.96) (size 1.27 1.27) (drill 1.27) (layers *.Cu *.Mask) (tstamp 2fe60b81-7f6f-4a5f-b3e6-8611b26ac8b8))
  (pad "1" thru_hole roundrect (at 0 0) (size 1.5 2.02) (drill 1.02) (layers *.Cu *.Mask) (roundrect_rratio 0.166667) (tstamp 33bd9b4b-ae51-4813-8068-809cb7854182))
  (pad "2" thru_hole oval (at 3 0) (size 1.5 2.02) (drill 1.02) (layers *.Cu *.Mask) (tstamp 455d56d9-7d93-42bb-a252-b5b28c77dba6))
  (pad "3" thru_hole oval (at 6 0) (size 1.5 2.02) (drill 1.02) (layers *.Cu *.Mask) (tstamp 1e43356e-f7de-44e9-aee5-d7dd2ef771d3))
  (model "${KIPRJMOD}/MICROFIT_1x3.stp"
    (offset (xyz 3 2 10))
    (scale (xyz 1 1 1))
    (rotate (xyz 90 0 180))
  )
  (model "${KIPRJMOD}/MICROFIT_1x3_M.stp"
    (offset (xyz 3 0 14))
    (scale (xyz 1 1 1))
    (rotate (xyz -90 0 0))
  )
)
