(footprint "Pololu_Breakout-16_15.2x20.3mm" (version 20211014) (generator pcbnew)
  (layer "F.Cu")
  (tedit 58AB602C)
  (descr "Pololu Breakout 16-pin 15.2x20.3mm 0.6x0.8\\")
  (tags "Pololu Breakout")
  (attr through_hole)
  (fp_text reference "REF**" (at 6.35 -2.54) (layer "F.SilkS")
    (effects (font (size 1 1) (thickness 0.15)))
    (tstamp 05ccdf2f-c4f0-4475-bcd9-f1ec554057f0)
  )
  (fp_text value "Pololu_Breakout-16_15.2x20.3mm" (at 6.35 20.17) (layer "F.Fab")
    (effects (font (size 1 1) (thickness 0.15)))
    (tstamp 2e390c47-779d-4587-8c70-b24269f1c29f)
  )
  (fp_text user "${REFERENCE}" (at 6.35 0) (layer "F.Fab")
    (effects (font (size 1 1) (thickness 0.15)))
    (tstamp 82866c8a-11ec-4480-b5f2-9f133ec9ac4c)
  )
  (fp_line (start 14.1 19.18) (end 14.1 -1.4) (layer "F.SilkS") (width 0.12) (tstamp 15be6a81-38cd-48c0-a658-95ca1cf860cf))
  (fp_line (start -1.4 19.18) (end 14.1 19.18) (layer "F.SilkS") (width 0.12) (tstamp 1f01e891-6f4f-4dbc-a764-ed5fd2883408))
  (fp_line (start 11.43 -1.4) (end 11.43 19.18) (layer "F.SilkS") (width 0.12) (tstamp 721011f6-9bad-4233-8e51-f343d657ca00))
  (fp_line (start 14.1 -1.4) (end 1.27 -1.4) (layer "F.SilkS") (width 0.12) (tstamp 759b5851-f0dc-4bf5-b98e-4fd9c1b2c87b))
  (fp_line (start 1.27 1.27) (end -1.4 1.27) (layer "F.SilkS") (width 0.12) (tstamp 7cd939fe-f239-48b0-84b0-db4c73b495b0))
  (fp_line (start 1.27 -1.4) (end 1.27 1.27) (layer "F.SilkS") (width 0.12) (tstamp 84170ae6-30b0-4c7a-a047-8ffd9eac9d74))
  (fp_line (start 1.27 1.27) (end 1.27 19.18) (layer "F.SilkS") (width 0.12) (tstamp 878a80d1-cd31-4ad5-b401-47da6eede999))
  (fp_line (start 0 -1.4) (end -1.4 -1.4) (layer "F.SilkS") (width 0.12) (tstamp 888e952f-fd10-49c1-b504-52c23dad5a2e))
  (fp_line (start -1.4 -1.4) (end -1.4 0) (layer "F.SilkS") (width 0.12) (tstamp 9fd8924e-59be-4220-a4f0-8826996718c3))
  (fp_line (start -1.4 1.27) (end -1.4 19.18) (layer "F.SilkS") (width 0.12) (tstamp ebba8f54-4f64-4ee3-83f7-542a3b4ce9ff))
  (fp_line (start 14.21 19.3) (end 14.21 -1.52) (layer "F.CrtYd") (width 0.05) (tstamp 1bfa112d-e2a6-4dd2-9ed5-a9eeda41f009))
  (fp_line (start -1.53 -1.52) (end -1.53 19.3) (layer "F.CrtYd") (width 0.05) (tstamp 71197baa-69d8-4f8f-9ffd-241132fcf73a))
  (fp_line (start -1.53 -1.52) (end 14.21 -1.52) (layer "F.CrtYd") (width 0.05) (tstamp b74ddb9a-007d-4b73-9c0a-645308fec65a))
  (fp_line (start 14.21 19.3) (end -1.53 19.3) (layer "F.CrtYd") (width 0.05) (tstamp d37b421c-1844-4dc2-ae83-79c1411d8c89))
  (fp_line (start -1.27 0) (end 0 -1.27) (layer "F.Fab") (width 0.1) (tstamp 29499d72-54e9-40d1-8791-5581662227be))
  (fp_line (start 0 -1.27) (end 13.97 -1.27) (layer "F.Fab") (width 0.1) (tstamp 3065d307-d27b-4459-a59d-4b98af61841d))
  (fp_line (start -1.27 19.05) (end -1.27 0) (layer "F.Fab") (width 0.1) (tstamp 35af0296-2cb7-431b-8543-e8d68c22ab11))
  (fp_line (start 13.97 -1.27) (end 13.97 19.05) (layer "F.Fab") (width 0.1) (tstamp 41f5b452-4e42-4293-8e21-149fa3213f1c))
  (fp_line (start 13.97 19.05) (end -1.27 19.05) (layer "F.Fab") (width 0.1) (tstamp b9869771-847d-40cc-8a79-af275c85fb38))
  (pad "1" thru_hole rect (at 0 0) (size 1.6 1.6) (drill 0.8) (layers *.Cu *.Mask) (tstamp a5bf6fea-baf2-47b3-a4de-8b32482d1fec))
  (pad "2" thru_hole oval (at 0 2.54) (size 1.6 1.6) (drill 0.8) (layers *.Cu *.Mask) (tstamp 5fa27605-9535-40c5-8d2d-0036dbfbd977))
  (pad "3" thru_hole oval (at 0 5.08) (size 1.6 1.6) (drill 0.8) (layers *.Cu *.Mask) (tstamp 567c6f9a-ceba-4996-baf1-d518b7cfc1b8))
  (pad "4" thru_hole oval (at 0 7.62) (size 1.6 1.6) (drill 0.8) (layers *.Cu *.Mask) (tstamp 6ce49674-00e7-4943-a7d1-ce6de8f047bb))
  (pad "5" thru_hole oval (at 0 10.16) (size 1.6 1.6) (drill 0.8) (layers *.Cu *.Mask) (tstamp e6577bf3-114f-40f7-9ba0-e5a48d073d09))
  (pad "6" thru_hole oval (at 0 12.7) (size 1.6 1.6) (drill 0.8) (layers *.Cu *.Mask) (tstamp ea59663c-dd2b-49a4-aceb-928cd2103174))
  (pad "7" thru_hole oval (at 0 15.24) (size 1.6 1.6) (drill 0.8) (layers *.Cu *.Mask) (tstamp 8c37b18a-4212-47fc-9def-1e1911f29a8f))
  (pad "8" thru_hole oval (at 0 17.78) (size 1.6 1.6) (drill 0.8) (layers *.Cu *.Mask) (tstamp af5e149d-65b5-47d1-93a1-6f0bcce1e672))
  (pad "9" thru_hole oval (at 12.7 17.78) (size 1.6 1.6) (drill 0.8) (layers *.Cu *.Mask) (tstamp 27a7cd1a-78f1-4fbd-ae91-3389acd852e1))
  (pad "10" thru_hole oval (at 12.7 15.24) (size 1.6 1.6) (drill 0.8) (layers *.Cu *.Mask) (tstamp f2c14cae-1d8f-41be-b78b-5954bdddae1b))
  (pad "11" thru_hole oval (at 12.7 12.7) (size 1.6 1.6) (drill 0.8) (layers *.Cu *.Mask) (tstamp 10776c48-2eaa-431b-8de2-6a3291f4f0f7))
  (pad "12" thru_hole oval (at 12.7 10.16) (size 1.6 1.6) (drill 0.8) (layers *.Cu *.Mask) (tstamp 51b86555-2619-45da-af9c-4c0e580657fc))
  (pad "13" thru_hole oval (at 12.7 7.62) (size 1.6 1.6) (drill 0.8) (layers *.Cu *.Mask) (tstamp 0fced33b-9b6c-410b-b200-84a860f57f4a))
  (pad "14" thru_hole oval (at 12.7 5.08) (size 1.6 1.6) (drill 0.8) (layers *.Cu *.Mask) (tstamp c95ddd35-51ec-4578-826e-0e9625e86489))
  (pad "15" thru_hole oval (at 12.7 2.54) (size 1.6 1.6) (drill 0.8) (layers *.Cu *.Mask) (tstamp 1cef4470-7a63-4408-bfdd-2738afea9d7d))
  (pad "16" thru_hole oval (at 12.7 0) (size 1.6 1.6) (drill 0.8) (layers *.Cu *.Mask) (tstamp de170945-c365-417e-bd94-f8aafba2aa2a))
  (model "${KIPRJMOD}/DRV8825.step"
    (offset (xyz -1.2 1.17 0.5))
    (scale (xyz 1 1 1))
    (rotate (xyz 0 0 90))
  )
  (model "${KICAD6_3DMODEL_DIR}/Connector_PinSocket_2.54mm.3dshapes/PinSocket_1x08_P2.54mm_Vertical.wrl"
    (offset (xyz 12.75 0 0))
    (scale (xyz 1 1 1))
    (rotate (xyz 0 0 0))
  )
  (model "${KICAD6_3DMODEL_DIR}/Connector_PinSocket_2.54mm.3dshapes/PinSocket_1x08_P2.54mm_Vertical.wrl"
    (offset (xyz 0 0 0))
    (scale (xyz 1 1 1))
    (rotate (xyz 0 0 0))
  )
)
