(footprint "Transistor" (version 20211014) (generator pcbnew)
  (layer "F.Cu")
  (tedit 5AC8BA0D)
  (descr "TO-220-3, Vertical, RM 2.54mm, see https://www.vishay.com/docs/66542/to-220-1.pdf")
  (tags "TO-220-3 Vertical RM 2.54mm")
  (property "Sheetfile" "Fichier: HOTEND.kicad_sch")
  (property "Sheetname" "HOTEND")
  (attr through_hole)
  (fp_text reference "QHBUSE1" (at 2.54 -4.27) (layer "F.SilkS")
    (effects (font (size 1 1) (thickness 0.15)))
    (tstamp 84fa33ae-0dc9-4afd-8a8a-4616730c0531)
  )
  (fp_text value "Q_NPN_EBC" (at 2.54 2.5) (layer "F.Fab")
    (effects (font (size 1 1) (thickness 0.15)))
    (tstamp f007aceb-12b9-4276-a4f2-fe3f80eec0e2)
  )
  (fp_text user "${REFERENCE}" (at 2.54 -4.27) (layer "F.Fab")
    (effects (font (size 1 1) (thickness 0.15)))
    (tstamp aadc8f77-96bd-4d73-8bdd-faed6062e4f7)
  )
  (fp_line (start -2.58 -3.27) (end -2.58 1.371) (layer "F.SilkS") (width 0.12) (tstamp 0ff0275f-b4b3-495d-ae64-8c66429f5b2e))
  (fp_line (start -2.58 -1.76) (end 7.66 -1.76) (layer "F.SilkS") (width 0.12) (tstamp 21c7c510-dfea-4b61-b329-fc474eafedd3))
  (fp_line (start 4.391 -3.27) (end 4.391 -1.76) (layer "F.SilkS") (width 0.12) (tstamp 51805e79-8791-488c-9910-b43ecb2bc15a))
  (fp_line (start 0.69 -3.27) (end 0.69 -1.76) (layer "F.SilkS") (width 0.12) (tstamp 52eefebf-eff4-423f-988d-37db158c85b0))
  (fp_line (start 7.66 -3.27) (end 7.66 1.371) (layer "F.SilkS") (width 0.12) (tstamp 88c7a155-fc5d-4207-a572-b27d000a90b9))
  (fp_line (start -2.58 -3.27) (end 7.66 -3.27) (layer "F.SilkS") (width 0.12) (tstamp 9f7e8df1-ff2e-44df-a518-7f649306b513))
  (fp_line (start -2.58 1.371) (end 7.66 1.371) (layer "F.SilkS") (width 0.12) (tstamp e05a921b-080e-4274-8951-0fe75c365ff6))
  (fp_line (start 7.79 -3.4) (end -2.71 -3.4) (layer "F.CrtYd") (width 0.05) (tstamp 361c9b15-35f8-44ec-88ed-3e9d72b74294))
  (fp_line (start 7.79 1.51) (end 7.79 -3.4) (layer "F.CrtYd") (width 0.05) (tstamp 5f147724-3a43-48fd-9098-9edde347fc84))
  (fp_line (start -2.71 -3.4) (end -2.71 1.51) (layer "F.CrtYd") (width 0.05) (tstamp 615fbc28-ee50-464d-8a11-3e7b555932b1))
  (fp_line (start -2.71 1.51) (end 7.79 1.51) (layer "F.CrtYd") (width 0.05) (tstamp 7983a216-444b-4b6f-820f-e91a5c8704cd))
  (fp_line (start 4.39 -3.15) (end 4.39 -1.88) (layer "F.Fab") (width 0.1) (tstamp 0193d2c5-2ba5-42ae-a133-733c4b59f928))
  (fp_line (start 0.69 -3.15) (end 0.69 -1.88) (layer "F.Fab") (width 0.1) (tstamp 0513447d-0afe-41b6-8daa-238af471757d))
  (fp_line (start -2.46 -1.88) (end 7.54 -1.88) (layer "F.Fab") (width 0.1) (tstamp 5e8fc219-39e8-4a49-a7d6-3a38e6cfdd42))
  (fp_line (start -2.46 1.25) (end 7.54 1.25) (layer "F.Fab") (width 0.1) (tstamp 6ce95735-f01a-468d-a511-3b09abc5f54e))
  (fp_line (start 7.54 1.25) (end 7.54 -3.15) (layer "F.Fab") (width 0.1) (tstamp 83bcc302-1df1-41ea-992e-5295bb7b7780))
  (fp_line (start 7.54 -3.15) (end -2.46 -3.15) (layer "F.Fab") (width 0.1) (tstamp daf4aaca-3101-4e0e-84e6-ad8fb00f7d69))
  (fp_line (start -2.46 -3.15) (end -2.46 1.25) (layer "F.Fab") (width 0.1) (tstamp fcd70d66-9524-4d89-a609-49b3fbf44be6))
  (pad "1" thru_hole rect (at 0 0) (size 1.905 2) (drill 1.1) (layers *.Cu *.Mask) (tstamp 6f155064-0567-45c8-9f12-fdf217b217e4))
  (pad "2" thru_hole oval (at 2.54 0) (size 1.905 2) (drill 1.1) (layers *.Cu *.Mask) (tstamp 187b1263-1901-42e1-a294-d30abe815b82))
  (pad "3" thru_hole oval (at 5.08 0) (size 1.905 2) (drill 1.1) (layers *.Cu *.Mask) (tstamp 9e38cbf0-5883-49a4-b630-5e6f8609bdf1))
  (model "${KICAD6_3DMODEL_DIR}/Package_TO_SOT_THT.3dshapes/TO-220-3_Vertical.wrl"
    (offset (xyz 0 0 0))
    (scale (xyz 1 1 1))
    (rotate (xyz 0 0 0))
  )
)
