<?xml version="1.0" encoding="UTF-8"?>
<!-- Do not edit this file with editors other than draw.io -->
<!DOCTYPE svg PUBLIC "-//W3C//DTD SVG 1.1//EN" "http://www.w3.org/Graphics/SVG/1.1/DTD/svg11.dtd">
<svg xmlns="http://www.w3.org/2000/svg" xmlns:xlink="http://www.w3.org/1999/xlink" version="1.1" width="841px" height="683px" viewBox="-0.5 -0.5 841 683" content="&lt;mxfile host=&quot;Electron&quot; modified=&quot;2024-02-08T15:51:56.612Z&quot; agent=&quot;Mozilla/5.0 (Windows NT 10.0; Win64; x64) AppleWebKit/537.36 (KHTML, like Gecko) draw.io/22.1.16 Chrome/120.0.6099.109 Electron/28.1.0 Safari/537.36&quot; etag=&quot;CG5y_oTV3jDP5xoXs_eE&quot; version=&quot;22.1.16&quot; type=&quot;device&quot;&gt;&#10;  &lt;diagram id=&quot;OyNQ0W5Wc5T4cM5dnJYi&quot; name=&quot;Page-1&quot;&gt;&#10;    &lt;mxGraphModel dx=&quot;1434&quot; dy=&quot;836&quot; grid=&quot;1&quot; gridSize=&quot;10&quot; guides=&quot;1&quot; tooltips=&quot;1&quot; connect=&quot;1&quot; arrows=&quot;1&quot; fold=&quot;1&quot; page=&quot;1&quot; pageScale=&quot;1&quot; pageWidth=&quot;827&quot; pageHeight=&quot;1169&quot; math=&quot;0&quot; shadow=&quot;0&quot;&gt;&#10;      &lt;root&gt;&#10;        &lt;mxCell id=&quot;0&quot; /&gt;&#10;        &lt;mxCell id=&quot;1&quot; parent=&quot;0&quot; /&gt;&#10;        &lt;mxCell id=&quot;EjvGXzx_wq1vYWcJ0HfF-60&quot; value=&quot;&quot; style=&quot;rounded=0;whiteSpace=wrap;html=1;fillColor=#fff2cc;strokeColor=#d6b656;&quot; parent=&quot;1&quot; vertex=&quot;1&quot;&gt;&#10;          &lt;mxGeometry x=&quot;40&quot; y=&quot;960&quot; width=&quot;840&quot; height=&quot;200&quot; as=&quot;geometry&quot; /&gt;&#10;        &lt;/mxCell&gt;&#10;        &lt;mxCell id=&quot;EjvGXzx_wq1vYWcJ0HfF-19&quot; value=&quot;&quot; style=&quot;rounded=0;whiteSpace=wrap;html=1;fillColor=#d5e8d4;strokeColor=#82b366;&quot; parent=&quot;1&quot; vertex=&quot;1&quot;&gt;&#10;          &lt;mxGeometry x=&quot;40&quot; y=&quot;480&quot; width=&quot;840&quot; height=&quot;200&quot; as=&quot;geometry&quot; /&gt;&#10;        &lt;/mxCell&gt;&#10;        &lt;mxCell id=&quot;EjvGXzx_wq1vYWcJ0HfF-20&quot; value=&quot;&quot; style=&quot;rounded=0;whiteSpace=wrap;html=1;fillColor=#e1d5e7;strokeColor=#9673a6;&quot; parent=&quot;1&quot; vertex=&quot;1&quot;&gt;&#10;          &lt;mxGeometry x=&quot;40&quot; y=&quot;720&quot; width=&quot;840&quot; height=&quot;200&quot; as=&quot;geometry&quot; /&gt;&#10;        &lt;/mxCell&gt;&#10;        &lt;mxCell id=&quot;EjvGXzx_wq1vYWcJ0HfF-25&quot; style=&quot;edgeStyle=orthogonalEdgeStyle;rounded=0;orthogonalLoop=1;jettySize=auto;html=1;entryX=0.5;entryY=1;entryDx=0;entryDy=0;strokeWidth=5;strokeColor=#C3ABD0;&quot; parent=&quot;1&quot; source=&quot;EjvGXzx_wq1vYWcJ0HfF-21&quot; target=&quot;EjvGXzx_wq1vYWcJ0HfF-23&quot; edge=&quot;1&quot;&gt;&#10;          &lt;mxGeometry relative=&quot;1&quot; as=&quot;geometry&quot; /&gt;&#10;        &lt;/mxCell&gt;&#10;        &lt;mxCell id=&quot;EjvGXzx_wq1vYWcJ0HfF-21&quot; value=&quot;Etape 1&amp;lt;br style=&amp;quot;font-size: 16px;&amp;quot;&amp;gt;Mesure (Probing)&quot; style=&quot;rounded=0;whiteSpace=wrap;html=1;fontStyle=1;fontSize=16;fillColor=#ffe6cc;strokeColor=#d79b00;&quot; parent=&quot;1&quot; vertex=&quot;1&quot;&gt;&#10;          &lt;mxGeometry x=&quot;80&quot; y=&quot;760&quot; width=&quot;120&quot; height=&quot;120&quot; as=&quot;geometry&quot; /&gt;&#10;        &lt;/mxCell&gt;&#10;        &lt;mxCell id=&quot;EjvGXzx_wq1vYWcJ0HfF-30&quot; style=&quot;edgeStyle=orthogonalEdgeStyle;rounded=0;orthogonalLoop=1;jettySize=auto;html=1;entryX=0;entryY=0.5;entryDx=0;entryDy=0;strokeWidth=5;strokeColor=#C3ABD0;&quot; parent=&quot;1&quot; source=&quot;EjvGXzx_wq1vYWcJ0HfF-22&quot; target=&quot;EjvGXzx_wq1vYWcJ0HfF-29&quot; edge=&quot;1&quot;&gt;&#10;          &lt;mxGeometry relative=&quot;1&quot; as=&quot;geometry&quot; /&gt;&#10;        &lt;/mxCell&gt;&#10;        &lt;mxCell id=&quot;EjvGXzx_wq1vYWcJ0HfF-39&quot; style=&quot;edgeStyle=orthogonalEdgeStyle;rounded=0;orthogonalLoop=1;jettySize=auto;html=1;exitX=0;exitY=1;exitDx=0;exitDy=0;entryX=0.5;entryY=0;entryDx=0;entryDy=0;strokeWidth=3;&quot; parent=&quot;1&quot; source=&quot;EjvGXzx_wq1vYWcJ0HfF-22&quot; target=&quot;EjvGXzx_wq1vYWcJ0HfF-35&quot; edge=&quot;1&quot;&gt;&#10;          &lt;mxGeometry relative=&quot;1&quot; as=&quot;geometry&quot;&gt;&#10;            &lt;Array as=&quot;points&quot;&gt;&#10;              &lt;mxPoint x=&quot;240&quot; y=&quot;970&quot; /&gt;&#10;              &lt;mxPoint x=&quot;80&quot; y=&quot;970&quot; /&gt;&#10;            &lt;/Array&gt;&#10;          &lt;/mxGeometry&gt;&#10;        &lt;/mxCell&gt;&#10;        &lt;mxCell id=&quot;EjvGXzx_wq1vYWcJ0HfF-40&quot; style=&quot;edgeStyle=orthogonalEdgeStyle;rounded=0;orthogonalLoop=1;jettySize=auto;html=1;exitX=0.25;exitY=1;exitDx=0;exitDy=0;entryX=0.5;entryY=0;entryDx=0;entryDy=0;strokeWidth=3;&quot; parent=&quot;1&quot; source=&quot;EjvGXzx_wq1vYWcJ0HfF-22&quot; target=&quot;EjvGXzx_wq1vYWcJ0HfF-36&quot; edge=&quot;1&quot;&gt;&#10;          &lt;mxGeometry relative=&quot;1&quot; as=&quot;geometry&quot;&gt;&#10;            &lt;Array as=&quot;points&quot;&gt;&#10;              &lt;mxPoint x=&quot;270&quot; y=&quot;980&quot; /&gt;&#10;              &lt;mxPoint x=&quot;160&quot; y=&quot;980&quot; /&gt;&#10;            &lt;/Array&gt;&#10;          &lt;/mxGeometry&gt;&#10;        &lt;/mxCell&gt;&#10;        &lt;mxCell id=&quot;EjvGXzx_wq1vYWcJ0HfF-41&quot; style=&quot;edgeStyle=orthogonalEdgeStyle;rounded=0;orthogonalLoop=1;jettySize=auto;html=1;exitX=0.75;exitY=1;exitDx=0;exitDy=0;entryX=0.5;entryY=0;entryDx=0;entryDy=0;strokeWidth=3;&quot; parent=&quot;1&quot; source=&quot;EjvGXzx_wq1vYWcJ0HfF-22&quot; target=&quot;EjvGXzx_wq1vYWcJ0HfF-37&quot; edge=&quot;1&quot;&gt;&#10;          &lt;mxGeometry relative=&quot;1&quot; as=&quot;geometry&quot;&gt;&#10;            &lt;Array as=&quot;points&quot;&gt;&#10;              &lt;mxPoint x=&quot;330&quot; y=&quot;990&quot; /&gt;&#10;              &lt;mxPoint x=&quot;240&quot; y=&quot;990&quot; /&gt;&#10;            &lt;/Array&gt;&#10;          &lt;/mxGeometry&gt;&#10;        &lt;/mxCell&gt;&#10;        &lt;mxCell id=&quot;EjvGXzx_wq1vYWcJ0HfF-42&quot; style=&quot;edgeStyle=orthogonalEdgeStyle;rounded=0;orthogonalLoop=1;jettySize=auto;html=1;exitX=1;exitY=1;exitDx=0;exitDy=0;entryX=0.5;entryY=0;entryDx=0;entryDy=0;strokeWidth=3;&quot; parent=&quot;1&quot; source=&quot;EjvGXzx_wq1vYWcJ0HfF-22&quot; target=&quot;EjvGXzx_wq1vYWcJ0HfF-38&quot; edge=&quot;1&quot;&gt;&#10;          &lt;mxGeometry relative=&quot;1&quot; as=&quot;geometry&quot;&gt;&#10;            &lt;Array as=&quot;points&quot;&gt;&#10;              &lt;mxPoint x=&quot;360&quot; y=&quot;1000&quot; /&gt;&#10;              &lt;mxPoint x=&quot;320&quot; y=&quot;1000&quot; /&gt;&#10;            &lt;/Array&gt;&#10;          &lt;/mxGeometry&gt;&#10;        &lt;/mxCell&gt;&#10;        &lt;mxCell id=&quot;EjvGXzx_wq1vYWcJ0HfF-22&quot; value=&quot;Etape 3&amp;lt;br style=&amp;quot;font-size: 16px;&amp;quot;&amp;gt;Mouvement à plat du plateau&quot; style=&quot;rounded=0;whiteSpace=wrap;html=1;fontStyle=1;fontSize=16;fillColor=#ffe6cc;strokeColor=#d79b00;&quot; parent=&quot;1&quot; vertex=&quot;1&quot;&gt;&#10;          &lt;mxGeometry x=&quot;240&quot; y=&quot;760&quot; width=&quot;120&quot; height=&quot;120&quot; as=&quot;geometry&quot; /&gt;&#10;        &lt;/mxCell&gt;&#10;        &lt;mxCell id=&quot;EjvGXzx_wq1vYWcJ0HfF-26&quot; style=&quot;edgeStyle=orthogonalEdgeStyle;rounded=0;orthogonalLoop=1;jettySize=auto;html=1;entryX=0.5;entryY=0;entryDx=0;entryDy=0;strokeWidth=5;strokeColor=#C3ABD0;&quot; parent=&quot;1&quot; source=&quot;EjvGXzx_wq1vYWcJ0HfF-23&quot; target=&quot;EjvGXzx_wq1vYWcJ0HfF-22&quot; edge=&quot;1&quot;&gt;&#10;          &lt;mxGeometry relative=&quot;1&quot; as=&quot;geometry&quot; /&gt;&#10;        &lt;/mxCell&gt;&#10;        &lt;mxCell id=&quot;EjvGXzx_wq1vYWcJ0HfF-23&quot; value=&quot;Etape 2&amp;lt;br style=&amp;quot;font-size: 16px;&amp;quot;&amp;gt;Modélisation du plateau&quot; style=&quot;rounded=0;whiteSpace=wrap;html=1;fontStyle=1;fontSize=16;fillColor=#dae8fc;strokeColor=#6c8ebf;&quot; parent=&quot;1&quot; vertex=&quot;1&quot;&gt;&#10;          &lt;mxGeometry x=&quot;80&quot; y=&quot;520&quot; width=&quot;120&quot; height=&quot;120&quot; as=&quot;geometry&quot; /&gt;&#10;        &lt;/mxCell&gt;&#10;        &lt;mxCell id=&quot;EjvGXzx_wq1vYWcJ0HfF-32&quot; style=&quot;edgeStyle=orthogonalEdgeStyle;rounded=0;orthogonalLoop=1;jettySize=auto;html=1;entryX=0;entryY=0.5;entryDx=0;entryDy=0;strokeWidth=5;strokeColor=#C3ABD0;&quot; parent=&quot;1&quot; source=&quot;EjvGXzx_wq1vYWcJ0HfF-29&quot; target=&quot;EjvGXzx_wq1vYWcJ0HfF-31&quot; edge=&quot;1&quot;&gt;&#10;          &lt;mxGeometry relative=&quot;1&quot; as=&quot;geometry&quot; /&gt;&#10;        &lt;/mxCell&gt;&#10;        &lt;mxCell id=&quot;EjvGXzx_wq1vYWcJ0HfF-29&quot; value=&quot;Etape 4&amp;lt;br style=&amp;quot;font-size: 16px;&amp;quot;&amp;gt;Mesure du plateau incliné&quot; style=&quot;rounded=0;whiteSpace=wrap;html=1;fontStyle=1;fontSize=16;fillColor=#ffe6cc;strokeColor=#d79b00;&quot; parent=&quot;1&quot; vertex=&quot;1&quot;&gt;&#10;          &lt;mxGeometry x=&quot;400&quot; y=&quot;760&quot; width=&quot;120&quot; height=&quot;120&quot; as=&quot;geometry&quot; /&gt;&#10;        &lt;/mxCell&gt;&#10;        &lt;mxCell id=&quot;EjvGXzx_wq1vYWcJ0HfF-64&quot; style=&quot;edgeStyle=orthogonalEdgeStyle;rounded=0;orthogonalLoop=1;jettySize=auto;html=1;exitX=0.5;exitY=0;exitDx=0;exitDy=0;entryX=0.5;entryY=1;entryDx=0;entryDy=0;strokeWidth=5;strokeColor=#C3ABD0;&quot; parent=&quot;1&quot; source=&quot;EjvGXzx_wq1vYWcJ0HfF-31&quot; target=&quot;EjvGXzx_wq1vYWcJ0HfF-33&quot; edge=&quot;1&quot;&gt;&#10;          &lt;mxGeometry relative=&quot;1&quot; as=&quot;geometry&quot; /&gt;&#10;        &lt;/mxCell&gt;&#10;        &lt;mxCell id=&quot;EjvGXzx_wq1vYWcJ0HfF-31&quot; value=&quot;Etape 5&amp;lt;br style=&amp;quot;font-size: 16px;&amp;quot;&amp;gt;Mesure du plateau incliné&quot; style=&quot;rounded=0;whiteSpace=wrap;html=1;fontStyle=1;fontSize=16;fillColor=#ffe6cc;strokeColor=#d79b00;&quot; parent=&quot;1&quot; vertex=&quot;1&quot;&gt;&#10;          &lt;mxGeometry x=&quot;560&quot; y=&quot;760&quot; width=&quot;120&quot; height=&quot;120&quot; as=&quot;geometry&quot; /&gt;&#10;        &lt;/mxCell&gt;&#10;        &lt;mxCell id=&quot;EjvGXzx_wq1vYWcJ0HfF-65&quot; style=&quot;edgeStyle=orthogonalEdgeStyle;rounded=0;orthogonalLoop=1;jettySize=auto;html=1;entryX=0.5;entryY=0;entryDx=0;entryDy=0;strokeWidth=5;strokeColor=#C3ABD0;&quot; parent=&quot;1&quot; source=&quot;EjvGXzx_wq1vYWcJ0HfF-33&quot; target=&quot;EjvGXzx_wq1vYWcJ0HfF-34&quot; edge=&quot;1&quot;&gt;&#10;          &lt;mxGeometry relative=&quot;1&quot; as=&quot;geometry&quot; /&gt;&#10;        &lt;/mxCell&gt;&#10;        &lt;mxCell id=&quot;EjvGXzx_wq1vYWcJ0HfF-33&quot; value=&quot;Etape 6&amp;lt;br style=&amp;quot;font-size: 16px;&amp;quot;&amp;gt;Calcul du défaut d&amp;#39;orthogonalité XY&quot; style=&quot;rounded=0;whiteSpace=wrap;html=1;fontStyle=1;fontSize=16;fillColor=#dae8fc;strokeColor=#6c8ebf;&quot; parent=&quot;1&quot; vertex=&quot;1&quot;&gt;&#10;          &lt;mxGeometry x=&quot;560&quot; y=&quot;520&quot; width=&quot;120&quot; height=&quot;120&quot; as=&quot;geometry&quot; /&gt;&#10;        &lt;/mxCell&gt;&#10;        &lt;mxCell id=&quot;EjvGXzx_wq1vYWcJ0HfF-51&quot; style=&quot;edgeStyle=orthogonalEdgeStyle;rounded=0;orthogonalLoop=1;jettySize=auto;html=1;exitX=0;exitY=1;exitDx=0;exitDy=0;entryX=0.5;entryY=0;entryDx=0;entryDy=0;strokeWidth=3;&quot; parent=&quot;1&quot; source=&quot;EjvGXzx_wq1vYWcJ0HfF-34&quot; target=&quot;EjvGXzx_wq1vYWcJ0HfF-47&quot; edge=&quot;1&quot;&gt;&#10;          &lt;mxGeometry relative=&quot;1&quot; as=&quot;geometry&quot;&gt;&#10;            &lt;Array as=&quot;points&quot;&gt;&#10;              &lt;mxPoint x=&quot;720&quot; y=&quot;970&quot; /&gt;&#10;              &lt;mxPoint x=&quot;560&quot; y=&quot;970&quot; /&gt;&#10;            &lt;/Array&gt;&#10;          &lt;/mxGeometry&gt;&#10;        &lt;/mxCell&gt;&#10;        &lt;mxCell id=&quot;EjvGXzx_wq1vYWcJ0HfF-52&quot; style=&quot;edgeStyle=orthogonalEdgeStyle;rounded=0;orthogonalLoop=1;jettySize=auto;html=1;exitX=0.25;exitY=1;exitDx=0;exitDy=0;entryX=0.5;entryY=0;entryDx=0;entryDy=0;strokeWidth=3;&quot; parent=&quot;1&quot; source=&quot;EjvGXzx_wq1vYWcJ0HfF-34&quot; target=&quot;EjvGXzx_wq1vYWcJ0HfF-48&quot; edge=&quot;1&quot;&gt;&#10;          &lt;mxGeometry relative=&quot;1&quot; as=&quot;geometry&quot;&gt;&#10;            &lt;Array as=&quot;points&quot;&gt;&#10;              &lt;mxPoint x=&quot;750&quot; y=&quot;980&quot; /&gt;&#10;              &lt;mxPoint x=&quot;640&quot; y=&quot;980&quot; /&gt;&#10;            &lt;/Array&gt;&#10;          &lt;/mxGeometry&gt;&#10;        &lt;/mxCell&gt;&#10;        &lt;mxCell id=&quot;EjvGXzx_wq1vYWcJ0HfF-53&quot; style=&quot;edgeStyle=orthogonalEdgeStyle;rounded=0;orthogonalLoop=1;jettySize=auto;html=1;exitX=0.75;exitY=1;exitDx=0;exitDy=0;entryX=0.5;entryY=0;entryDx=0;entryDy=0;strokeWidth=3;&quot; parent=&quot;1&quot; source=&quot;EjvGXzx_wq1vYWcJ0HfF-34&quot; target=&quot;EjvGXzx_wq1vYWcJ0HfF-49&quot; edge=&quot;1&quot;&gt;&#10;          &lt;mxGeometry relative=&quot;1&quot; as=&quot;geometry&quot;&gt;&#10;            &lt;Array as=&quot;points&quot;&gt;&#10;              &lt;mxPoint x=&quot;810&quot; y=&quot;990&quot; /&gt;&#10;              &lt;mxPoint x=&quot;720&quot; y=&quot;990&quot; /&gt;&#10;            &lt;/Array&gt;&#10;          &lt;/mxGeometry&gt;&#10;        &lt;/mxCell&gt;&#10;        &lt;mxCell id=&quot;EjvGXzx_wq1vYWcJ0HfF-54&quot; style=&quot;edgeStyle=orthogonalEdgeStyle;rounded=0;orthogonalLoop=1;jettySize=auto;html=1;exitX=1;exitY=1;exitDx=0;exitDy=0;entryX=0.5;entryY=0;entryDx=0;entryDy=0;strokeWidth=3;&quot; parent=&quot;1&quot; source=&quot;EjvGXzx_wq1vYWcJ0HfF-34&quot; target=&quot;EjvGXzx_wq1vYWcJ0HfF-50&quot; edge=&quot;1&quot;&gt;&#10;          &lt;mxGeometry relative=&quot;1&quot; as=&quot;geometry&quot;&gt;&#10;            &lt;Array as=&quot;points&quot;&gt;&#10;              &lt;mxPoint x=&quot;840&quot; y=&quot;1000&quot; /&gt;&#10;              &lt;mxPoint x=&quot;800&quot; y=&quot;1000&quot; /&gt;&#10;            &lt;/Array&gt;&#10;          &lt;/mxGeometry&gt;&#10;        &lt;/mxCell&gt;&#10;        &lt;mxCell id=&quot;EjvGXzx_wq1vYWcJ0HfF-34&quot; value=&quot;Etape 7&amp;lt;br style=&amp;quot;font-size: 16px;&amp;quot;&amp;gt;Déplacement des chariots des axes&quot; style=&quot;rounded=0;whiteSpace=wrap;html=1;fontStyle=1;fontSize=16;fillColor=#ffe6cc;strokeColor=#d79b00;&quot; parent=&quot;1&quot; vertex=&quot;1&quot;&gt;&#10;          &lt;mxGeometry x=&quot;720&quot; y=&quot;760&quot; width=&quot;120&quot; height=&quot;120&quot; as=&quot;geometry&quot; /&gt;&#10;        &lt;/mxCell&gt;&#10;        &lt;mxCell id=&quot;EjvGXzx_wq1vYWcJ0HfF-35&quot; value=&quot;Motor 1 Z&quot; style=&quot;ellipse;whiteSpace=wrap;html=1;fontSize=14;fontStyle=5;fillColor=#f8cecc;strokeColor=#b85450;&quot; parent=&quot;1&quot; vertex=&quot;1&quot;&gt;&#10;          &lt;mxGeometry x=&quot;40&quot; y=&quot;1038&quot; width=&quot;80&quot; height=&quot;80&quot; as=&quot;geometry&quot; /&gt;&#10;        &lt;/mxCell&gt;&#10;        &lt;mxCell id=&quot;EjvGXzx_wq1vYWcJ0HfF-36&quot; value=&quot;Motor 2 Z&quot; style=&quot;ellipse;whiteSpace=wrap;html=1;fontSize=14;fontStyle=5;fillColor=#f8cecc;strokeColor=#b85450;&quot; parent=&quot;1&quot; vertex=&quot;1&quot;&gt;&#10;          &lt;mxGeometry x=&quot;120&quot; y=&quot;1038&quot; width=&quot;80&quot; height=&quot;80&quot; as=&quot;geometry&quot; /&gt;&#10;        &lt;/mxCell&gt;&#10;        &lt;mxCell id=&quot;EjvGXzx_wq1vYWcJ0HfF-37&quot; value=&quot;Motor 3 Z&quot; style=&quot;ellipse;whiteSpace=wrap;html=1;fontSize=14;fontStyle=5;fillColor=#f8cecc;strokeColor=#b85450;&quot; parent=&quot;1&quot; vertex=&quot;1&quot;&gt;&#10;          &lt;mxGeometry x=&quot;200&quot; y=&quot;1038&quot; width=&quot;80&quot; height=&quot;80&quot; as=&quot;geometry&quot; /&gt;&#10;        &lt;/mxCell&gt;&#10;        &lt;mxCell id=&quot;EjvGXzx_wq1vYWcJ0HfF-38&quot; value=&quot;Motor 4 Z&quot; style=&quot;ellipse;whiteSpace=wrap;html=1;fontSize=14;fontStyle=5;fillColor=#f8cecc;strokeColor=#b85450;&quot; parent=&quot;1&quot; vertex=&quot;1&quot;&gt;&#10;          &lt;mxGeometry x=&quot;280&quot; y=&quot;1038&quot; width=&quot;80&quot; height=&quot;80&quot; as=&quot;geometry&quot; /&gt;&#10;        &lt;/mxCell&gt;&#10;        &lt;mxCell id=&quot;EjvGXzx_wq1vYWcJ0HfF-43&quot; value=&quot;dZ1&quot; style=&quot;text;html=1;align=center;verticalAlign=middle;resizable=0;points=[];;autosize=1;fontStyle=1&quot; parent=&quot;1&quot; vertex=&quot;1&quot;&gt;&#10;          &lt;mxGeometry x=&quot;80&quot; y=&quot;1010&quot; width=&quot;40&quot; height=&quot;20&quot; as=&quot;geometry&quot; /&gt;&#10;        &lt;/mxCell&gt;&#10;        &lt;mxCell id=&quot;EjvGXzx_wq1vYWcJ0HfF-44&quot; value=&quot;dZ2&quot; style=&quot;text;html=1;align=center;verticalAlign=middle;resizable=0;points=[];;autosize=1;fontStyle=1&quot; parent=&quot;1&quot; vertex=&quot;1&quot;&gt;&#10;          &lt;mxGeometry x=&quot;160&quot; y=&quot;1010&quot; width=&quot;40&quot; height=&quot;20&quot; as=&quot;geometry&quot; /&gt;&#10;        &lt;/mxCell&gt;&#10;        &lt;mxCell id=&quot;EjvGXzx_wq1vYWcJ0HfF-45&quot; value=&quot;dZ3&quot; style=&quot;text;html=1;align=center;verticalAlign=middle;resizable=0;points=[];;autosize=1;fontStyle=1&quot; parent=&quot;1&quot; vertex=&quot;1&quot;&gt;&#10;          &lt;mxGeometry x=&quot;240&quot; y=&quot;1010&quot; width=&quot;40&quot; height=&quot;20&quot; as=&quot;geometry&quot; /&gt;&#10;        &lt;/mxCell&gt;&#10;        &lt;mxCell id=&quot;EjvGXzx_wq1vYWcJ0HfF-46&quot; value=&quot;dZ4&quot; style=&quot;text;html=1;align=center;verticalAlign=middle;resizable=0;points=[];;autosize=1;fontStyle=1&quot; parent=&quot;1&quot; vertex=&quot;1&quot;&gt;&#10;          &lt;mxGeometry x=&quot;320&quot; y=&quot;1010&quot; width=&quot;40&quot; height=&quot;20&quot; as=&quot;geometry&quot; /&gt;&#10;        &lt;/mxCell&gt;&#10;        &lt;mxCell id=&quot;EjvGXzx_wq1vYWcJ0HfF-47&quot; value=&quot;Motor 1 X&quot; style=&quot;ellipse;whiteSpace=wrap;html=1;fontSize=14;fontStyle=5;fillColor=#e1d5e7;strokeColor=#9673a6;&quot; parent=&quot;1&quot; vertex=&quot;1&quot;&gt;&#10;          &lt;mxGeometry x=&quot;520&quot; y=&quot;1038&quot; width=&quot;80&quot; height=&quot;80&quot; as=&quot;geometry&quot; /&gt;&#10;        &lt;/mxCell&gt;&#10;        &lt;mxCell id=&quot;EjvGXzx_wq1vYWcJ0HfF-48&quot; value=&quot;Motor 2 X&quot; style=&quot;ellipse;whiteSpace=wrap;html=1;fontSize=14;fontStyle=5;fillColor=#e1d5e7;strokeColor=#9673a6;&quot; parent=&quot;1&quot; vertex=&quot;1&quot;&gt;&#10;          &lt;mxGeometry x=&quot;600&quot; y=&quot;1038&quot; width=&quot;80&quot; height=&quot;80&quot; as=&quot;geometry&quot; /&gt;&#10;        &lt;/mxCell&gt;&#10;        &lt;mxCell id=&quot;EjvGXzx_wq1vYWcJ0HfF-49&quot; value=&quot;Motor 1 Y&quot; style=&quot;ellipse;whiteSpace=wrap;html=1;fontSize=14;fontStyle=5;fillColor=#e1d5e7;strokeColor=#9673a6;&quot; parent=&quot;1&quot; vertex=&quot;1&quot;&gt;&#10;          &lt;mxGeometry x=&quot;680&quot; y=&quot;1038&quot; width=&quot;80&quot; height=&quot;80&quot; as=&quot;geometry&quot; /&gt;&#10;        &lt;/mxCell&gt;&#10;        &lt;mxCell id=&quot;EjvGXzx_wq1vYWcJ0HfF-50&quot; value=&quot;Motor 2 Y&quot; style=&quot;ellipse;whiteSpace=wrap;html=1;fontSize=14;fontStyle=5;fillColor=#e1d5e7;strokeColor=#9673a6;&quot; parent=&quot;1&quot; vertex=&quot;1&quot;&gt;&#10;          &lt;mxGeometry x=&quot;760&quot; y=&quot;1038&quot; width=&quot;80&quot; height=&quot;80&quot; as=&quot;geometry&quot; /&gt;&#10;        &lt;/mxCell&gt;&#10;        &lt;mxCell id=&quot;EjvGXzx_wq1vYWcJ0HfF-55&quot; value=&quot;dX1&quot; style=&quot;text;html=1;align=center;verticalAlign=middle;resizable=0;points=[];;autosize=1;fontStyle=1&quot; parent=&quot;1&quot; vertex=&quot;1&quot;&gt;&#10;          &lt;mxGeometry x=&quot;560&quot; y=&quot;1010&quot; width=&quot;40&quot; height=&quot;20&quot; as=&quot;geometry&quot; /&gt;&#10;        &lt;/mxCell&gt;&#10;        &lt;mxCell id=&quot;EjvGXzx_wq1vYWcJ0HfF-56&quot; value=&quot;dX2&quot; style=&quot;text;html=1;align=center;verticalAlign=middle;resizable=0;points=[];;autosize=1;fontStyle=1&quot; parent=&quot;1&quot; vertex=&quot;1&quot;&gt;&#10;          &lt;mxGeometry x=&quot;640&quot; y=&quot;1010&quot; width=&quot;40&quot; height=&quot;20&quot; as=&quot;geometry&quot; /&gt;&#10;        &lt;/mxCell&gt;&#10;        &lt;mxCell id=&quot;EjvGXzx_wq1vYWcJ0HfF-57&quot; value=&quot;dY1&quot; style=&quot;text;html=1;align=center;verticalAlign=middle;resizable=0;points=[];;autosize=1;fontStyle=1&quot; parent=&quot;1&quot; vertex=&quot;1&quot;&gt;&#10;          &lt;mxGeometry x=&quot;720&quot; y=&quot;1010&quot; width=&quot;40&quot; height=&quot;20&quot; as=&quot;geometry&quot; /&gt;&#10;        &lt;/mxCell&gt;&#10;        &lt;mxCell id=&quot;EjvGXzx_wq1vYWcJ0HfF-58&quot; value=&quot;dY2&quot; style=&quot;text;html=1;align=center;verticalAlign=middle;resizable=0;points=[];;autosize=1;fontStyle=1&quot; parent=&quot;1&quot; vertex=&quot;1&quot;&gt;&#10;          &lt;mxGeometry x=&quot;800&quot; y=&quot;1010&quot; width=&quot;40&quot; height=&quot;20&quot; as=&quot;geometry&quot; /&gt;&#10;        &lt;/mxCell&gt;&#10;        &lt;mxCell id=&quot;EjvGXzx_wq1vYWcJ0HfF-61&quot; value=&quot;&amp;lt;font style=&amp;quot;font-size: 20px&amp;quot;&amp;gt;&amp;lt;b&amp;gt;&amp;lt;u&amp;gt;Arduino&amp;lt;/u&amp;gt;&amp;lt;/b&amp;gt;&amp;lt;/font&amp;gt;&quot; style=&quot;text;html=1;strokeColor=none;fillColor=none;align=center;verticalAlign=middle;whiteSpace=wrap;rounded=0;&quot; parent=&quot;1&quot; vertex=&quot;1&quot;&gt;&#10;          &lt;mxGeometry x=&quot;440&quot; y=&quot;720&quot; width=&quot;40&quot; height=&quot;20&quot; as=&quot;geometry&quot; /&gt;&#10;        &lt;/mxCell&gt;&#10;        &lt;mxCell id=&quot;EjvGXzx_wq1vYWcJ0HfF-62&quot; value=&quot;&amp;lt;font style=&amp;quot;font-size: 20px&amp;quot;&amp;gt;&amp;lt;b&amp;gt;&amp;lt;u&amp;gt;Raspberry&amp;lt;/u&amp;gt;&amp;lt;/b&amp;gt;&amp;lt;/font&amp;gt;&quot; style=&quot;text;html=1;strokeColor=none;fillColor=none;align=center;verticalAlign=middle;whiteSpace=wrap;rounded=0;&quot; parent=&quot;1&quot; vertex=&quot;1&quot;&gt;&#10;          &lt;mxGeometry x=&quot;440&quot; y=&quot;480&quot; width=&quot;40&quot; height=&quot;20&quot; as=&quot;geometry&quot; /&gt;&#10;        &lt;/mxCell&gt;&#10;        &lt;mxCell id=&quot;EjvGXzx_wq1vYWcJ0HfF-63&quot; value=&quot;&amp;lt;font style=&amp;quot;font-size: 20px&amp;quot;&amp;gt;&amp;lt;b&amp;gt;&amp;lt;u&amp;gt;Motors&amp;lt;/u&amp;gt;&amp;lt;/b&amp;gt;&amp;lt;/font&amp;gt;&quot; style=&quot;text;html=1;strokeColor=none;fillColor=none;align=center;verticalAlign=middle;whiteSpace=wrap;rounded=0;&quot; parent=&quot;1&quot; vertex=&quot;1&quot;&gt;&#10;          &lt;mxGeometry x=&quot;440&quot; y=&quot;970&quot; width=&quot;40&quot; height=&quot;20&quot; as=&quot;geometry&quot; /&gt;&#10;        &lt;/mxCell&gt;&#10;        &lt;mxCell id=&quot;EjvGXzx_wq1vYWcJ0HfF-66&quot; value=&quot;Z=f(X, Y) [M x N]&quot; style=&quot;text;html=1;strokeColor=none;fillColor=none;align=center;verticalAlign=middle;whiteSpace=wrap;rounded=0;fontSize=14;fontStyle=1&quot; parent=&quot;1&quot; vertex=&quot;1&quot;&gt;&#10;          &lt;mxGeometry x=&quot;130&quot; y=&quot;660&quot; width=&quot;150&quot; height=&quot;20&quot; as=&quot;geometry&quot; /&gt;&#10;        &lt;/mxCell&gt;&#10;        &lt;mxCell id=&quot;EjvGXzx_wq1vYWcJ0HfF-68&quot; value=&quot;dZ1, dZ2, dZ3 dZ4&quot; style=&quot;text;html=1;strokeColor=none;fillColor=none;align=center;verticalAlign=middle;whiteSpace=wrap;rounded=0;fontSize=14;fontStyle=1&quot; parent=&quot;1&quot; vertex=&quot;1&quot;&gt;&#10;          &lt;mxGeometry x=&quot;200&quot; y=&quot;550&quot; width=&quot;140&quot; height=&quot;20&quot; as=&quot;geometry&quot; /&gt;&#10;        &lt;/mxCell&gt;&#10;        &lt;mxCell id=&quot;EjvGXzx_wq1vYWcJ0HfF-69&quot; value=&quot;Z=f(X, Y) [M x N]&quot; style=&quot;text;html=1;strokeColor=none;fillColor=none;align=center;verticalAlign=middle;whiteSpace=wrap;rounded=0;fontSize=14;fontStyle=1&quot; parent=&quot;1&quot; vertex=&quot;1&quot;&gt;&#10;          &lt;mxGeometry x=&quot;485&quot; y=&quot;660&quot; width=&quot;150&quot; height=&quot;20&quot; as=&quot;geometry&quot; /&gt;&#10;        &lt;/mxCell&gt;&#10;        &lt;mxCell id=&quot;EjvGXzx_wq1vYWcJ0HfF-70&quot; value=&quot;dX1, dX2, dY1 dY2&quot; style=&quot;text;html=1;strokeColor=none;fillColor=none;align=center;verticalAlign=middle;whiteSpace=wrap;rounded=0;fontSize=14;fontStyle=1&quot; parent=&quot;1&quot; vertex=&quot;1&quot;&gt;&#10;          &lt;mxGeometry x=&quot;680&quot; y=&quot;550&quot; width=&quot;140&quot; height=&quot;20&quot; as=&quot;geometry&quot; /&gt;&#10;        &lt;/mxCell&gt;&#10;      &lt;/root&gt;&#10;    &lt;/mxGraphModel&gt;&#10;  &lt;/diagram&gt;&#10;&lt;/mxfile&gt;&#10;"><defs/><g><rect x="0" y="482" width="840" height="200" fill="#fff2cc" stroke="#d6b656" pointer-events="all"/><rect x="0" y="2" width="840" height="200" fill="#d5e8d4" stroke="#82b366" pointer-events="all"/><rect x="0" y="242" width="840" height="200" fill="#e1d5e7" stroke="#9673a6" pointer-events="all"/><path d="M 100 282 L 100 175.84" fill="none" stroke="#c3abd0" stroke-width="5" stroke-miterlimit="10" pointer-events="stroke"/><path d="M 100 167.59 L 105.5 178.59 L 100 175.84 L 94.5 178.59 Z" fill="#c3abd0" stroke="#c3abd0" stroke-width="5" stroke-miterlimit="10" pointer-events="all"/><rect x="40" y="282" width="120" height="120" fill="#ffe6cc" stroke="#d79b00" pointer-events="all"/><g transform="translate(-0.5 -0.5)"><switch><foreignObject pointer-events="none" width="100%" height="100%" requiredFeatures="http://www.w3.org/TR/SVG11/feature#Extensibility" style="overflow: visible; text-align: left;"><div xmlns="http://www.w3.org/1999/xhtml" style="display: flex; align-items: unsafe center; justify-content: unsafe center; width: 118px; height: 1px; padding-top: 342px; margin-left: 41px;"><div data-drawio-colors="color: rgb(0, 0, 0); " style="box-sizing: border-box; font-size: 0px; text-align: center;"><div style="display: inline-block; font-size: 16px; font-family: Helvetica; color: rgb(0, 0, 0); line-height: 1.2; pointer-events: all; font-weight: bold; white-space: normal; overflow-wrap: normal;">Etape 1<br style="font-size: 16px;" />Mesure (Probing)</div></div></div></foreignObject><text x="100" y="347" fill="rgb(0, 0, 0)" font-family="Helvetica" font-size="16px" text-anchor="middle" font-weight="bold">Etape 1...</text></switch></g><path d="M 320 342 L 346.16 342" fill="none" stroke="#c3abd0" stroke-width="5" stroke-miterlimit="10" pointer-events="stroke"/><path d="M 354.41 342 L 343.41 347.5 L 346.16 342 L 343.41 336.5 Z" fill="#c3abd0" stroke="#c3abd0" stroke-width="5" stroke-miterlimit="10" pointer-events="all"/><path d="M 200 402 L 200 492 L 40 492 L 40 549.9" fill="none" stroke="rgb(0, 0, 0)" stroke-width="3" stroke-miterlimit="10" pointer-events="stroke"/><path d="M 40 556.65 L 35.5 547.65 L 40 549.9 L 44.5 547.65 Z" fill="rgb(0, 0, 0)" stroke="rgb(0, 0, 0)" stroke-width="3" stroke-miterlimit="10" pointer-events="all"/><path d="M 230 402 L 230 502 L 120 502 L 120 549.9" fill="none" stroke="rgb(0, 0, 0)" stroke-width="3" stroke-miterlimit="10" pointer-events="stroke"/><path d="M 120 556.65 L 115.5 547.65 L 120 549.9 L 124.5 547.65 Z" fill="rgb(0, 0, 0)" stroke="rgb(0, 0, 0)" stroke-width="3" stroke-miterlimit="10" pointer-events="all"/><path d="M 290 402 L 290 512 L 200 512 L 200 549.9" fill="none" stroke="rgb(0, 0, 0)" stroke-width="3" stroke-miterlimit="10" pointer-events="stroke"/><path d="M 200 556.65 L 195.5 547.65 L 200 549.9 L 204.5 547.65 Z" fill="rgb(0, 0, 0)" stroke="rgb(0, 0, 0)" stroke-width="3" stroke-miterlimit="10" pointer-events="all"/><path d="M 320 402 L 320 522 L 280 522 L 280 549.9" fill="none" stroke="rgb(0, 0, 0)" stroke-width="3" stroke-miterlimit="10" pointer-events="stroke"/><path d="M 280 556.65 L 275.5 547.65 L 280 549.9 L 284.5 547.65 Z" fill="rgb(0, 0, 0)" stroke="rgb(0, 0, 0)" stroke-width="3" stroke-miterlimit="10" pointer-events="all"/><rect x="200" y="282" width="120" height="120" fill="#ffe6cc" stroke="#d79b00" pointer-events="all"/><g transform="translate(-0.5 -0.5)"><switch><foreignObject pointer-events="none" width="100%" height="100%" requiredFeatures="http://www.w3.org/TR/SVG11/feature#Extensibility" style="overflow: visible; text-align: left;"><div xmlns="http://www.w3.org/1999/xhtml" style="display: flex; align-items: unsafe center; justify-content: unsafe center; width: 118px; height: 1px; padding-top: 342px; margin-left: 201px;"><div data-drawio-colors="color: rgb(0, 0, 0); " style="box-sizing: border-box; font-size: 0px; text-align: center;"><div style="display: inline-block; font-size: 16px; font-family: Helvetica; color: rgb(0, 0, 0); line-height: 1.2; pointer-events: all; font-weight: bold; white-space: normal; overflow-wrap: normal;">Etape 3<br style="font-size: 16px;" />Mouvement à plat du plateau</div></div></div></foreignObject><text x="260" y="347" fill="rgb(0, 0, 0)" font-family="Helvetica" font-size="16px" text-anchor="middle" font-weight="bold">Etape 3...</text></switch></g><path d="M 160 102 L 260 102 L 260 268.16" fill="none" stroke="#c3abd0" stroke-width="5" stroke-miterlimit="10" pointer-events="stroke"/><path d="M 260 276.41 L 254.5 265.41 L 260 268.16 L 265.5 265.41 Z" fill="#c3abd0" stroke="#c3abd0" stroke-width="5" stroke-miterlimit="10" pointer-events="all"/><rect x="40" y="42" width="120" height="120" fill="#dae8fc" stroke="#6c8ebf" pointer-events="all"/><g transform="translate(-0.5 -0.5)"><switch><foreignObject pointer-events="none" width="100%" height="100%" requiredFeatures="http://www.w3.org/TR/SVG11/feature#Extensibility" style="overflow: visible; text-align: left;"><div xmlns="http://www.w3.org/1999/xhtml" style="display: flex; align-items: unsafe center; justify-content: unsafe center; width: 118px; height: 1px; padding-top: 102px; margin-left: 41px;"><div data-drawio-colors="color: rgb(0, 0, 0); " style="box-sizing: border-box; font-size: 0px; text-align: center;"><div style="display: inline-block; font-size: 16px; font-family: Helvetica; color: rgb(0, 0, 0); line-height: 1.2; pointer-events: all; font-weight: bold; white-space: normal; overflow-wrap: normal;">Etape 2<br style="font-size: 16px;" />Modélisation du plateau</div></div></div></foreignObject><text x="100" y="107" fill="rgb(0, 0, 0)" font-family="Helvetica" font-size="16px" text-anchor="middle" font-weight="bold">Etape 2...</text></switch></g><path d="M 480 342 L 506.16 342" fill="none" stroke="#c3abd0" stroke-width="5" stroke-miterlimit="10" pointer-events="stroke"/><path d="M 514.41 342 L 503.41 347.5 L 506.16 342 L 503.41 336.5 Z" fill="#c3abd0" stroke="#c3abd0" stroke-width="5" stroke-miterlimit="10" pointer-events="all"/><rect x="360" y="282" width="120" height="120" fill="#ffe6cc" stroke="#d79b00" pointer-events="all"/><g transform="translate(-0.5 -0.5)"><switch><foreignObject pointer-events="none" width="100%" height="100%" requiredFeatures="http://www.w3.org/TR/SVG11/feature#Extensibility" style="overflow: visible; text-align: left;"><div xmlns="http://www.w3.org/1999/xhtml" style="display: flex; align-items: unsafe center; justify-content: unsafe center; width: 118px; height: 1px; padding-top: 342px; margin-left: 361px;"><div data-drawio-colors="color: rgb(0, 0, 0); " style="box-sizing: border-box; font-size: 0px; text-align: center;"><div style="display: inline-block; font-size: 16px; font-family: Helvetica; color: rgb(0, 0, 0); line-height: 1.2; pointer-events: all; font-weight: bold; white-space: normal; overflow-wrap: normal;">Etape 4<br style="font-size: 16px;" />Mesure du plateau incliné</div></div></div></foreignObject><text x="420" y="347" fill="rgb(0, 0, 0)" font-family="Helvetica" font-size="16px" text-anchor="middle" font-weight="bold">Etape 4...</text></switch></g><path d="M 580 282 L 580 175.84" fill="none" stroke="#c3abd0" stroke-width="5" stroke-miterlimit="10" pointer-events="stroke"/><path d="M 580 167.59 L 585.5 178.59 L 580 175.84 L 574.5 178.59 Z" fill="#c3abd0" stroke="#c3abd0" stroke-width="5" stroke-miterlimit="10" pointer-events="all"/><rect x="520" y="282" width="120" height="120" fill="#ffe6cc" stroke="#d79b00" pointer-events="all"/><g transform="translate(-0.5 -0.5)"><switch><foreignObject pointer-events="none" width="100%" height="100%" requiredFeatures="http://www.w3.org/TR/SVG11/feature#Extensibility" style="overflow: visible; text-align: left;"><div xmlns="http://www.w3.org/1999/xhtml" style="display: flex; align-items: unsafe center; justify-content: unsafe center; width: 118px; height: 1px; padding-top: 342px; margin-left: 521px;"><div data-drawio-colors="color: rgb(0, 0, 0); " style="box-sizing: border-box; font-size: 0px; text-align: center;"><div style="display: inline-block; font-size: 16px; font-family: Helvetica; color: rgb(0, 0, 0); line-height: 1.2; pointer-events: all; font-weight: bold; white-space: normal; overflow-wrap: normal;">Etape 5<br style="font-size: 16px;" />Mesure du plateau incliné</div></div></div></foreignObject><text x="580" y="347" fill="rgb(0, 0, 0)" font-family="Helvetica" font-size="16px" text-anchor="middle" font-weight="bold">Etape 5...</text></switch></g><path d="M 640 102 L 740 102 L 740 268.16" fill="none" stroke="#c3abd0" stroke-width="5" stroke-miterlimit="10" pointer-events="stroke"/><path d="M 740 276.41 L 734.5 265.41 L 740 268.16 L 745.5 265.41 Z" fill="#c3abd0" stroke="#c3abd0" stroke-width="5" stroke-miterlimit="10" pointer-events="all"/><rect x="520" y="42" width="120" height="120" fill="#dae8fc" stroke="#6c8ebf" pointer-events="all"/><g transform="translate(-0.5 -0.5)"><switch><foreignObject pointer-events="none" width="100%" height="100%" requiredFeatures="http://www.w3.org/TR/SVG11/feature#Extensibility" style="overflow: visible; text-align: left;"><div xmlns="http://www.w3.org/1999/xhtml" style="display: flex; align-items: unsafe center; justify-content: unsafe center; width: 118px; height: 1px; padding-top: 102px; margin-left: 521px;"><div data-drawio-colors="color: rgb(0, 0, 0); " style="box-sizing: border-box; font-size: 0px; text-align: center;"><div style="display: inline-block; font-size: 16px; font-family: Helvetica; color: rgb(0, 0, 0); line-height: 1.2; pointer-events: all; font-weight: bold; white-space: normal; overflow-wrap: normal;">Etape 6<br style="font-size: 16px;" />Calcul du défaut d'orthogonalité XY</div></div></div></foreignObject><text x="580" y="107" fill="rgb(0, 0, 0)" font-family="Helvetica" font-size="16px" text-anchor="middle" font-weight="bold">Etape 6...</text></switch></g><path d="M 680 402 L 680 492 L 520 492 L 520 549.9" fill="none" stroke="rgb(0, 0, 0)" stroke-width="3" stroke-miterlimit="10" pointer-events="stroke"/><path d="M 520 556.65 L 515.5 547.65 L 520 549.9 L 524.5 547.65 Z" fill="rgb(0, 0, 0)" stroke="rgb(0, 0, 0)" stroke-width="3" stroke-miterlimit="10" pointer-events="all"/><path d="M 710 402 L 710 502 L 600 502 L 600 549.9" fill="none" stroke="rgb(0, 0, 0)" stroke-width="3" stroke-miterlimit="10" pointer-events="stroke"/><path d="M 600 556.65 L 595.5 547.65 L 600 549.9 L 604.5 547.65 Z" fill="rgb(0, 0, 0)" stroke="rgb(0, 0, 0)" stroke-width="3" stroke-miterlimit="10" pointer-events="all"/><path d="M 770 402 L 770 512 L 680 512 L 680 549.9" fill="none" stroke="rgb(0, 0, 0)" stroke-width="3" stroke-miterlimit="10" pointer-events="stroke"/><path d="M 680 556.65 L 675.5 547.65 L 680 549.9 L 684.5 547.65 Z" fill="rgb(0, 0, 0)" stroke="rgb(0, 0, 0)" stroke-width="3" stroke-miterlimit="10" pointer-events="all"/><path d="M 800 402 L 800 522 L 760 522 L 760 549.9" fill="none" stroke="rgb(0, 0, 0)" stroke-width="3" stroke-miterlimit="10" pointer-events="stroke"/><path d="M 760 556.65 L 755.5 547.65 L 760 549.9 L 764.5 547.65 Z" fill="rgb(0, 0, 0)" stroke="rgb(0, 0, 0)" stroke-width="3" stroke-miterlimit="10" pointer-events="all"/><rect x="680" y="282" width="120" height="120" fill="#ffe6cc" stroke="#d79b00" pointer-events="all"/><g transform="translate(-0.5 -0.5)"><switch><foreignObject pointer-events="none" width="100%" height="100%" requiredFeatures="http://www.w3.org/TR/SVG11/feature#Extensibility" style="overflow: visible; text-align: left;"><div xmlns="http://www.w3.org/1999/xhtml" style="display: flex; align-items: unsafe center; justify-content: unsafe center; width: 118px; height: 1px; padding-top: 342px; margin-left: 681px;"><div data-drawio-colors="color: rgb(0, 0, 0); " style="box-sizing: border-box; font-size: 0px; text-align: center;"><div style="display: inline-block; font-size: 16px; font-family: Helvetica; color: rgb(0, 0, 0); line-height: 1.2; pointer-events: all; font-weight: bold; white-space: normal; overflow-wrap: normal;">Etape 7<br style="font-size: 16px;" />Déplacement des chariots des axes</div></div></div></foreignObject><text x="740" y="347" fill="rgb(0, 0, 0)" font-family="Helvetica" font-size="16px" text-anchor="middle" font-weight="bold">Etape 7...</text></switch></g><ellipse cx="40" cy="600" rx="40" ry="40" fill="#f8cecc" stroke="#b85450" pointer-events="all"/><g transform="translate(-0.5 -0.5)"><switch><foreignObject pointer-events="none" width="100%" height="100%" requiredFeatures="http://www.w3.org/TR/SVG11/feature#Extensibility" style="overflow: visible; text-align: left;"><div xmlns="http://www.w3.org/1999/xhtml" style="display: flex; align-items: unsafe center; justify-content: unsafe center; width: 78px; height: 1px; padding-top: 600px; margin-left: 1px;"><div data-drawio-colors="color: rgb(0, 0, 0); " style="box-sizing: border-box; font-size: 0px; text-align: center;"><div style="display: inline-block; font-size: 14px; font-family: Helvetica; color: rgb(0, 0, 0); line-height: 1.2; pointer-events: all; font-weight: bold; text-decoration: underline; white-space: normal; overflow-wrap: normal;">Motor 1 Z</div></div></div></foreignObject><text x="40" y="604" fill="rgb(0, 0, 0)" font-family="Helvetica" font-size="14px" text-anchor="middle" font-weight="bold" text-decoration="underline">Motor 1 Z</text></switch></g><ellipse cx="120" cy="600" rx="40" ry="40" fill="#f8cecc" stroke="#b85450" pointer-events="all"/><g transform="translate(-0.5 -0.5)"><switch><foreignObject pointer-events="none" width="100%" height="100%" requiredFeatures="http://www.w3.org/TR/SVG11/feature#Extensibility" style="overflow: visible; text-align: left;"><div xmlns="http://www.w3.org/1999/xhtml" style="display: flex; align-items: unsafe center; justify-content: unsafe center; width: 78px; height: 1px; padding-top: 600px; margin-left: 81px;"><div data-drawio-colors="color: rgb(0, 0, 0); " style="box-sizing: border-box; font-size: 0px; text-align: center;"><div style="display: inline-block; font-size: 14px; font-family: Helvetica; color: rgb(0, 0, 0); line-height: 1.2; pointer-events: all; font-weight: bold; text-decoration: underline; white-space: normal; overflow-wrap: normal;">Motor 2 Z</div></div></div></foreignObject><text x="120" y="604" fill="rgb(0, 0, 0)" font-family="Helvetica" font-size="14px" text-anchor="middle" font-weight="bold" text-decoration="underline">Motor 2 Z</text></switch></g><ellipse cx="200" cy="600" rx="40" ry="40" fill="#f8cecc" stroke="#b85450" pointer-events="all"/><g transform="translate(-0.5 -0.5)"><switch><foreignObject pointer-events="none" width="100%" height="100%" requiredFeatures="http://www.w3.org/TR/SVG11/feature#Extensibility" style="overflow: visible; text-align: left;"><div xmlns="http://www.w3.org/1999/xhtml" style="display: flex; align-items: unsafe center; justify-content: unsafe center; width: 78px; height: 1px; padding-top: 600px; margin-left: 161px;"><div data-drawio-colors="color: rgb(0, 0, 0); " style="box-sizing: border-box; font-size: 0px; text-align: center;"><div style="display: inline-block; font-size: 14px; font-family: Helvetica; color: rgb(0, 0, 0); line-height: 1.2; pointer-events: all; font-weight: bold; text-decoration: underline; white-space: normal; overflow-wrap: normal;">Motor 3 Z</div></div></div></foreignObject><text x="200" y="604" fill="rgb(0, 0, 0)" font-family="Helvetica" font-size="14px" text-anchor="middle" font-weight="bold" text-decoration="underline">Motor 3 Z</text></switch></g><ellipse cx="280" cy="600" rx="40" ry="40" fill="#f8cecc" stroke="#b85450" pointer-events="all"/><g transform="translate(-0.5 -0.5)"><switch><foreignObject pointer-events="none" width="100%" height="100%" requiredFeatures="http://www.w3.org/TR/SVG11/feature#Extensibility" style="overflow: visible; text-align: left;"><div xmlns="http://www.w3.org/1999/xhtml" style="display: flex; align-items: unsafe center; justify-content: unsafe center; width: 78px; height: 1px; padding-top: 600px; margin-left: 241px;"><div data-drawio-colors="color: rgb(0, 0, 0); " style="box-sizing: border-box; font-size: 0px; text-align: center;"><div style="display: inline-block; font-size: 14px; font-family: Helvetica; color: rgb(0, 0, 0); line-height: 1.2; pointer-events: all; font-weight: bold; text-decoration: underline; white-space: normal; overflow-wrap: normal;">Motor 4 Z</div></div></div></foreignObject><text x="280" y="604" fill="rgb(0, 0, 0)" font-family="Helvetica" font-size="14px" text-anchor="middle" font-weight="bold" text-decoration="underline">Motor 4 Z</text></switch></g><rect x="40" y="532" width="40" height="20" fill="none" stroke="none" pointer-events="all"/><g transform="translate(-0.5 -0.5)"><switch><foreignObject pointer-events="none" width="100%" height="100%" requiredFeatures="http://www.w3.org/TR/SVG11/feature#Extensibility" style="overflow: visible; text-align: left;"><div xmlns="http://www.w3.org/1999/xhtml" style="display: flex; align-items: unsafe center; justify-content: unsafe center; width: 1px; height: 1px; padding-top: 542px; margin-left: 60px;"><div data-drawio-colors="color: rgb(0, 0, 0); " style="box-sizing: border-box; font-size: 0px; text-align: center;"><div style="display: inline-block; font-size: 12px; font-family: Helvetica; color: rgb(0, 0, 0); line-height: 1.2; pointer-events: all; font-weight: bold; white-space: nowrap;">dZ1</div></div></div></foreignObject><text x="60" y="546" fill="rgb(0, 0, 0)" font-family="Helvetica" font-size="12px" text-anchor="middle" font-weight="bold">dZ1</text></switch></g><rect x="120" y="532" width="40" height="20" fill="none" stroke="none" pointer-events="all"/><g transform="translate(-0.5 -0.5)"><switch><foreignObject pointer-events="none" width="100%" height="100%" requiredFeatures="http://www.w3.org/TR/SVG11/feature#Extensibility" style="overflow: visible; text-align: left;"><div xmlns="http://www.w3.org/1999/xhtml" style="display: flex; align-items: unsafe center; justify-content: unsafe center; width: 1px; height: 1px; padding-top: 542px; margin-left: 140px;"><div data-drawio-colors="color: rgb(0, 0, 0); " style="box-sizing: border-box; font-size: 0px; text-align: center;"><div style="display: inline-block; font-size: 12px; font-family: Helvetica; color: rgb(0, 0, 0); line-height: 1.2; pointer-events: all; font-weight: bold; white-space: nowrap;">dZ2</div></div></div></foreignObject><text x="140" y="546" fill="rgb(0, 0, 0)" font-family="Helvetica" font-size="12px" text-anchor="middle" font-weight="bold">dZ2</text></switch></g><rect x="200" y="532" width="40" height="20" fill="none" stroke="none" pointer-events="all"/><g transform="translate(-0.5 -0.5)"><switch><foreignObject pointer-events="none" width="100%" height="100%" requiredFeatures="http://www.w3.org/TR/SVG11/feature#Extensibility" style="overflow: visible; text-align: left;"><div xmlns="http://www.w3.org/1999/xhtml" style="display: flex; align-items: unsafe center; justify-content: unsafe center; width: 1px; height: 1px; padding-top: 542px; margin-left: 220px;"><div data-drawio-colors="color: rgb(0, 0, 0); " style="box-sizing: border-box; font-size: 0px; text-align: center;"><div style="display: inline-block; font-size: 12px; font-family: Helvetica; color: rgb(0, 0, 0); line-height: 1.2; pointer-events: all; font-weight: bold; white-space: nowrap;">dZ3</div></div></div></foreignObject><text x="220" y="546" fill="rgb(0, 0, 0)" font-family="Helvetica" font-size="12px" text-anchor="middle" font-weight="bold">dZ3</text></switch></g><rect x="280" y="532" width="40" height="20" fill="none" stroke="none" pointer-events="all"/><g transform="translate(-0.5 -0.5)"><switch><foreignObject pointer-events="none" width="100%" height="100%" requiredFeatures="http://www.w3.org/TR/SVG11/feature#Extensibility" style="overflow: visible; text-align: left;"><div xmlns="http://www.w3.org/1999/xhtml" style="display: flex; align-items: unsafe center; justify-content: unsafe center; width: 1px; height: 1px; padding-top: 542px; margin-left: 300px;"><div data-drawio-colors="color: rgb(0, 0, 0); " style="box-sizing: border-box; font-size: 0px; text-align: center;"><div style="display: inline-block; font-size: 12px; font-family: Helvetica; color: rgb(0, 0, 0); line-height: 1.2; pointer-events: all; font-weight: bold; white-space: nowrap;">dZ4</div></div></div></foreignObject><text x="300" y="546" fill="rgb(0, 0, 0)" font-family="Helvetica" font-size="12px" text-anchor="middle" font-weight="bold">dZ4</text></switch></g><ellipse cx="520" cy="600" rx="40" ry="40" fill="#e1d5e7" stroke="#9673a6" pointer-events="all"/><g transform="translate(-0.5 -0.5)"><switch><foreignObject pointer-events="none" width="100%" height="100%" requiredFeatures="http://www.w3.org/TR/SVG11/feature#Extensibility" style="overflow: visible; text-align: left;"><div xmlns="http://www.w3.org/1999/xhtml" style="display: flex; align-items: unsafe center; justify-content: unsafe center; width: 78px; height: 1px; padding-top: 600px; margin-left: 481px;"><div data-drawio-colors="color: rgb(0, 0, 0); " style="box-sizing: border-box; font-size: 0px; text-align: center;"><div style="display: inline-block; font-size: 14px; font-family: Helvetica; color: rgb(0, 0, 0); line-height: 1.2; pointer-events: all; font-weight: bold; text-decoration: underline; white-space: normal; overflow-wrap: normal;">Motor 1 X</div></div></div></foreignObject><text x="520" y="604" fill="rgb(0, 0, 0)" font-family="Helvetica" font-size="14px" text-anchor="middle" font-weight="bold" text-decoration="underline">Motor 1 X</text></switch></g><ellipse cx="600" cy="600" rx="40" ry="40" fill="#e1d5e7" stroke="#9673a6" pointer-events="all"/><g transform="translate(-0.5 -0.5)"><switch><foreignObject pointer-events="none" width="100%" height="100%" requiredFeatures="http://www.w3.org/TR/SVG11/feature#Extensibility" style="overflow: visible; text-align: left;"><div xmlns="http://www.w3.org/1999/xhtml" style="display: flex; align-items: unsafe center; justify-content: unsafe center; width: 78px; height: 1px; padding-top: 600px; margin-left: 561px;"><div data-drawio-colors="color: rgb(0, 0, 0); " style="box-sizing: border-box; font-size: 0px; text-align: center;"><div style="display: inline-block; font-size: 14px; font-family: Helvetica; color: rgb(0, 0, 0); line-height: 1.2; pointer-events: all; font-weight: bold; text-decoration: underline; white-space: normal; overflow-wrap: normal;">Motor 2 X</div></div></div></foreignObject><text x="600" y="604" fill="rgb(0, 0, 0)" font-family="Helvetica" font-size="14px" text-anchor="middle" font-weight="bold" text-decoration="underline">Motor 2 X</text></switch></g><ellipse cx="680" cy="600" rx="40" ry="40" fill="#e1d5e7" stroke="#9673a6" pointer-events="all"/><g transform="translate(-0.5 -0.5)"><switch><foreignObject pointer-events="none" width="100%" height="100%" requiredFeatures="http://www.w3.org/TR/SVG11/feature#Extensibility" style="overflow: visible; text-align: left;"><div xmlns="http://www.w3.org/1999/xhtml" style="display: flex; align-items: unsafe center; justify-content: unsafe center; width: 78px; height: 1px; padding-top: 600px; margin-left: 641px;"><div data-drawio-colors="color: rgb(0, 0, 0); " style="box-sizing: border-box; font-size: 0px; text-align: center;"><div style="display: inline-block; font-size: 14px; font-family: Helvetica; color: rgb(0, 0, 0); line-height: 1.2; pointer-events: all; font-weight: bold; text-decoration: underline; white-space: normal; overflow-wrap: normal;">Motor 1 Y</div></div></div></foreignObject><text x="680" y="604" fill="rgb(0, 0, 0)" font-family="Helvetica" font-size="14px" text-anchor="middle" font-weight="bold" text-decoration="underline">Motor 1 Y</text></switch></g><ellipse cx="760" cy="600" rx="40" ry="40" fill="#e1d5e7" stroke="#9673a6" pointer-events="all"/><g transform="translate(-0.5 -0.5)"><switch><foreignObject pointer-events="none" width="100%" height="100%" requiredFeatures="http://www.w3.org/TR/SVG11/feature#Extensibility" style="overflow: visible; text-align: left;"><div xmlns="http://www.w3.org/1999/xhtml" style="display: flex; align-items: unsafe center; justify-content: unsafe center; width: 78px; height: 1px; padding-top: 600px; margin-left: 721px;"><div data-drawio-colors="color: rgb(0, 0, 0); " style="box-sizing: border-box; font-size: 0px; text-align: center;"><div style="display: inline-block; font-size: 14px; font-family: Helvetica; color: rgb(0, 0, 0); line-height: 1.2; pointer-events: all; font-weight: bold; text-decoration: underline; white-space: normal; overflow-wrap: normal;">Motor 2 Y</div></div></div></foreignObject><text x="760" y="604" fill="rgb(0, 0, 0)" font-family="Helvetica" font-size="14px" text-anchor="middle" font-weight="bold" text-decoration="underline">Motor 2 Y</text></switch></g><rect x="520" y="532" width="40" height="20" fill="none" stroke="none" pointer-events="all"/><g transform="translate(-0.5 -0.5)"><switch><foreignObject pointer-events="none" width="100%" height="100%" requiredFeatures="http://www.w3.org/TR/SVG11/feature#Extensibility" style="overflow: visible; text-align: left;"><div xmlns="http://www.w3.org/1999/xhtml" style="display: flex; align-items: unsafe center; justify-content: unsafe center; width: 1px; height: 1px; padding-top: 542px; margin-left: 540px;"><div data-drawio-colors="color: rgb(0, 0, 0); " style="box-sizing: border-box; font-size: 0px; text-align: center;"><div style="display: inline-block; font-size: 12px; font-family: Helvetica; color: rgb(0, 0, 0); line-height: 1.2; pointer-events: all; font-weight: bold; white-space: nowrap;">dX1</div></div></div></foreignObject><text x="540" y="546" fill="rgb(0, 0, 0)" font-family="Helvetica" font-size="12px" text-anchor="middle" font-weight="bold">dX1</text></switch></g><rect x="600" y="532" width="40" height="20" fill="none" stroke="none" pointer-events="all"/><g transform="translate(-0.5 -0.5)"><switch><foreignObject pointer-events="none" width="100%" height="100%" requiredFeatures="http://www.w3.org/TR/SVG11/feature#Extensibility" style="overflow: visible; text-align: left;"><div xmlns="http://www.w3.org/1999/xhtml" style="display: flex; align-items: unsafe center; justify-content: unsafe center; width: 1px; height: 1px; padding-top: 542px; margin-left: 620px;"><div data-drawio-colors="color: rgb(0, 0, 0); " style="box-sizing: border-box; font-size: 0px; text-align: center;"><div style="display: inline-block; font-size: 12px; font-family: Helvetica; color: rgb(0, 0, 0); line-height: 1.2; pointer-events: all; font-weight: bold; white-space: nowrap;">dX2</div></div></div></foreignObject><text x="620" y="546" fill="rgb(0, 0, 0)" font-family="Helvetica" font-size="12px" text-anchor="middle" font-weight="bold">dX2</text></switch></g><rect x="680" y="532" width="40" height="20" fill="none" stroke="none" pointer-events="all"/><g transform="translate(-0.5 -0.5)"><switch><foreignObject pointer-events="none" width="100%" height="100%" requiredFeatures="http://www.w3.org/TR/SVG11/feature#Extensibility" style="overflow: visible; text-align: left;"><div xmlns="http://www.w3.org/1999/xhtml" style="display: flex; align-items: unsafe center; justify-content: unsafe center; width: 1px; height: 1px; padding-top: 542px; margin-left: 700px;"><div data-drawio-colors="color: rgb(0, 0, 0); " style="box-sizing: border-box; font-size: 0px; text-align: center;"><div style="display: inline-block; font-size: 12px; font-family: Helvetica; color: rgb(0, 0, 0); line-height: 1.2; pointer-events: all; font-weight: bold; white-space: nowrap;">dY1</div></div></div></foreignObject><text x="700" y="546" fill="rgb(0, 0, 0)" font-family="Helvetica" font-size="12px" text-anchor="middle" font-weight="bold">dY1</text></switch></g><rect x="760" y="532" width="40" height="20" fill="none" stroke="none" pointer-events="all"/><g transform="translate(-0.5 -0.5)"><switch><foreignObject pointer-events="none" width="100%" height="100%" requiredFeatures="http://www.w3.org/TR/SVG11/feature#Extensibility" style="overflow: visible; text-align: left;"><div xmlns="http://www.w3.org/1999/xhtml" style="display: flex; align-items: unsafe center; justify-content: unsafe center; width: 1px; height: 1px; padding-top: 542px; margin-left: 780px;"><div data-drawio-colors="color: rgb(0, 0, 0); " style="box-sizing: border-box; font-size: 0px; text-align: center;"><div style="display: inline-block; font-size: 12px; font-family: Helvetica; color: rgb(0, 0, 0); line-height: 1.2; pointer-events: all; font-weight: bold; white-space: nowrap;">dY2</div></div></div></foreignObject><text x="780" y="546" fill="rgb(0, 0, 0)" font-family="Helvetica" font-size="12px" text-anchor="middle" font-weight="bold">dY2</text></switch></g><rect x="400" y="242" width="40" height="20" fill="none" stroke="none" pointer-events="all"/><g transform="translate(-0.5 -0.5)"><switch><foreignObject pointer-events="none" width="100%" height="100%" requiredFeatures="http://www.w3.org/TR/SVG11/feature#Extensibility" style="overflow: visible; text-align: left;"><div xmlns="http://www.w3.org/1999/xhtml" style="display: flex; align-items: unsafe center; justify-content: unsafe center; width: 38px; height: 1px; padding-top: 252px; margin-left: 401px;"><div data-drawio-colors="color: rgb(0, 0, 0); " style="box-sizing: border-box; font-size: 0px; text-align: center;"><div style="display: inline-block; font-size: 12px; font-family: Helvetica; color: rgb(0, 0, 0); line-height: 1.2; pointer-events: all; white-space: normal; overflow-wrap: normal;"><font style="font-size: 20px"><b><u>Arduino</u></b></font></div></div></div></foreignObject><text x="420" y="256" fill="rgb(0, 0, 0)" font-family="Helvetica" font-size="12px" text-anchor="middle">Arduino</text></switch></g><rect x="400" y="2" width="40" height="20" fill="none" stroke="none" pointer-events="all"/><g transform="translate(-0.5 -0.5)"><switch><foreignObject pointer-events="none" width="100%" height="100%" requiredFeatures="http://www.w3.org/TR/SVG11/feature#Extensibility" style="overflow: visible; text-align: left;"><div xmlns="http://www.w3.org/1999/xhtml" style="display: flex; align-items: unsafe center; justify-content: unsafe center; width: 38px; height: 1px; padding-top: 12px; margin-left: 401px;"><div data-drawio-colors="color: rgb(0, 0, 0); " style="box-sizing: border-box; font-size: 0px; text-align: center;"><div style="display: inline-block; font-size: 12px; font-family: Helvetica; color: rgb(0, 0, 0); line-height: 1.2; pointer-events: all; white-space: normal; overflow-wrap: normal;"><font style="font-size: 20px"><b><u>Raspberry</u></b></font></div></div></div></foreignObject><text x="420" y="16" fill="rgb(0, 0, 0)" font-family="Helvetica" font-size="12px" text-anchor="middle">Raspbe...</text></switch></g><rect x="400" y="492" width="40" height="20" fill="none" stroke="none" pointer-events="all"/><g transform="translate(-0.5 -0.5)"><switch><foreignObject pointer-events="none" width="100%" height="100%" requiredFeatures="http://www.w3.org/TR/SVG11/feature#Extensibility" style="overflow: visible; text-align: left;"><div xmlns="http://www.w3.org/1999/xhtml" style="display: flex; align-items: unsafe center; justify-content: unsafe center; width: 38px; height: 1px; padding-top: 502px; margin-left: 401px;"><div data-drawio-colors="color: rgb(0, 0, 0); " style="box-sizing: border-box; font-size: 0px; text-align: center;"><div style="display: inline-block; font-size: 12px; font-family: Helvetica; color: rgb(0, 0, 0); line-height: 1.2; pointer-events: all; white-space: normal; overflow-wrap: normal;"><font style="font-size: 20px"><b><u>Motors</u></b></font></div></div></div></foreignObject><text x="420" y="506" fill="rgb(0, 0, 0)" font-family="Helvetica" font-size="12px" text-anchor="middle">Motors</text></switch></g><rect x="90" y="182" width="150" height="20" fill="none" stroke="none" pointer-events="all"/><g transform="translate(-0.5 -0.5)"><switch><foreignObject pointer-events="none" width="100%" height="100%" requiredFeatures="http://www.w3.org/TR/SVG11/feature#Extensibility" style="overflow: visible; text-align: left;"><div xmlns="http://www.w3.org/1999/xhtml" style="display: flex; align-items: unsafe center; justify-content: unsafe center; width: 148px; height: 1px; padding-top: 192px; margin-left: 91px;"><div data-drawio-colors="color: rgb(0, 0, 0); " style="box-sizing: border-box; font-size: 0px; text-align: center;"><div style="display: inline-block; font-size: 14px; font-family: Helvetica; color: rgb(0, 0, 0); line-height: 1.2; pointer-events: all; font-weight: bold; white-space: normal; overflow-wrap: normal;">Z=f(X, Y) [M x N]</div></div></div></foreignObject><text x="165" y="196" fill="rgb(0, 0, 0)" font-family="Helvetica" font-size="14px" text-anchor="middle" font-weight="bold">Z=f(X, Y) [M x N]</text></switch></g><rect x="160" y="72" width="140" height="20" fill="none" stroke="none" pointer-events="all"/><g transform="translate(-0.5 -0.5)"><switch><foreignObject pointer-events="none" width="100%" height="100%" requiredFeatures="http://www.w3.org/TR/SVG11/feature#Extensibility" style="overflow: visible; text-align: left;"><div xmlns="http://www.w3.org/1999/xhtml" style="display: flex; align-items: unsafe center; justify-content: unsafe center; width: 138px; height: 1px; padding-top: 82px; margin-left: 161px;"><div data-drawio-colors="color: rgb(0, 0, 0); " style="box-sizing: border-box; font-size: 0px; text-align: center;"><div style="display: inline-block; font-size: 14px; font-family: Helvetica; color: rgb(0, 0, 0); line-height: 1.2; pointer-events: all; font-weight: bold; white-space: normal; overflow-wrap: normal;">dZ1, dZ2, dZ3 dZ4</div></div></div></foreignObject><text x="230" y="86" fill="rgb(0, 0, 0)" font-family="Helvetica" font-size="14px" text-anchor="middle" font-weight="bold">dZ1, dZ2, dZ3 dZ4</text></switch></g><rect x="445" y="182" width="150" height="20" fill="none" stroke="none" pointer-events="all"/><g transform="translate(-0.5 -0.5)"><switch><foreignObject pointer-events="none" width="100%" height="100%" requiredFeatures="http://www.w3.org/TR/SVG11/feature#Extensibility" style="overflow: visible; text-align: left;"><div xmlns="http://www.w3.org/1999/xhtml" style="display: flex; align-items: unsafe center; justify-content: unsafe center; width: 148px; height: 1px; padding-top: 192px; margin-left: 446px;"><div data-drawio-colors="color: rgb(0, 0, 0); " style="box-sizing: border-box; font-size: 0px; text-align: center;"><div style="display: inline-block; font-size: 14px; font-family: Helvetica; color: rgb(0, 0, 0); line-height: 1.2; pointer-events: all; font-weight: bold; white-space: normal; overflow-wrap: normal;">Z=f(X, Y) [M x N]</div></div></div></foreignObject><text x="520" y="196" fill="rgb(0, 0, 0)" font-family="Helvetica" font-size="14px" text-anchor="middle" font-weight="bold">Z=f(X, Y) [M x N]</text></switch></g><rect x="640" y="72" width="140" height="20" fill="none" stroke="none" pointer-events="all"/><g transform="translate(-0.5 -0.5)"><switch><foreignObject pointer-events="none" width="100%" height="100%" requiredFeatures="http://www.w3.org/TR/SVG11/feature#Extensibility" style="overflow: visible; text-align: left;"><div xmlns="http://www.w3.org/1999/xhtml" style="display: flex; align-items: unsafe center; justify-content: unsafe center; width: 138px; height: 1px; padding-top: 82px; margin-left: 641px;"><div data-drawio-colors="color: rgb(0, 0, 0); " style="box-sizing: border-box; font-size: 0px; text-align: center;"><div style="display: inline-block; font-size: 14px; font-family: Helvetica; color: rgb(0, 0, 0); line-height: 1.2; pointer-events: all; font-weight: bold; white-space: normal; overflow-wrap: normal;">dX1, dX2, dY1 dY2</div></div></div></foreignObject><text x="710" y="86" fill="rgb(0, 0, 0)" font-family="Helvetica" font-size="14px" text-anchor="middle" font-weight="bold">dX1, dX2, dY1 dY2</text></switch></g></g><switch><g requiredFeatures="http://www.w3.org/TR/SVG11/feature#Extensibility"/><a transform="translate(0,-5)" xlink:href="https://www.drawio.com/doc/faq/svg-export-text-problems" target="_blank"><text text-anchor="middle" font-size="10px" x="50%" y="100%">Text is not SVG - cannot display</text></a></switch></svg>