(kicad_sch (version 20230121) (generator eeschema)

  (uuid 02785f37-2867-4472-8c4a-8de07b9d1e78)

  (paper "A4")

  (lib_symbols
    (symbol "Connector_Generic:Conn_02x02_Top_Bottom" (pin_names (offset 1.016) hide) (in_bom yes) (on_board yes)
      (property "Reference" "J" (at 1.27 2.54 0)
        (effects (font (size 1.27 1.27)))
      )
      (property "Value" "Conn_02x02_Top_Bottom" (at 1.27 -5.08 0)
        (effects (font (size 1.27 1.27)))
      )
      (property "Footprint" "" (at 0 0 0)
        (effects (font (size 1.27 1.27)) hide)
      )
      (property "Datasheet" "~" (at 0 0 0)
        (effects (font (size 1.27 1.27)) hide)
      )
      (property "ki_keywords" "connector" (at 0 0 0)
        (effects (font (size 1.27 1.27)) hide)
      )
      (property "ki_description" "Generic connector, double row, 02x02, top/bottom pin numbering scheme (row 1: 1...pins_per_row, row2: pins_per_row+1 ... num_pins), script generated (kicad-library-utils/schlib/autogen/connector/)" (at 0 0 0)
        (effects (font (size 1.27 1.27)) hide)
      )
      (property "ki_fp_filters" "Connector*:*_2x??_*" (at 0 0 0)
        (effects (font (size 1.27 1.27)) hide)
      )
      (symbol "Conn_02x02_Top_Bottom_1_1"
        (rectangle (start -1.27 -2.413) (end 0 -2.667)
          (stroke (width 0.1524) (type default))
          (fill (type none))
        )
        (rectangle (start -1.27 0.127) (end 0 -0.127)
          (stroke (width 0.1524) (type default))
          (fill (type none))
        )
        (rectangle (start -1.27 1.27) (end 3.81 -3.81)
          (stroke (width 0.254) (type default))
          (fill (type background))
        )
        (rectangle (start 3.81 -2.413) (end 2.54 -2.667)
          (stroke (width 0.1524) (type default))
          (fill (type none))
        )
        (rectangle (start 3.81 0.127) (end 2.54 -0.127)
          (stroke (width 0.1524) (type default))
          (fill (type none))
        )
        (pin passive line (at -5.08 0 0) (length 3.81)
          (name "Pin_1" (effects (font (size 1.27 1.27))))
          (number "1" (effects (font (size 1.27 1.27))))
        )
        (pin passive line (at -5.08 -2.54 0) (length 3.81)
          (name "Pin_2" (effects (font (size 1.27 1.27))))
          (number "2" (effects (font (size 1.27 1.27))))
        )
        (pin passive line (at 7.62 0 180) (length 3.81)
          (name "Pin_3" (effects (font (size 1.27 1.27))))
          (number "3" (effects (font (size 1.27 1.27))))
        )
        (pin passive line (at 7.62 -2.54 180) (length 3.81)
          (name "Pin_4" (effects (font (size 1.27 1.27))))
          (number "4" (effects (font (size 1.27 1.27))))
        )
      )
    )
    (symbol "Connector_Generic:Conn_02x03_Odd_Even" (pin_names (offset 1.016) hide) (in_bom yes) (on_board yes)
      (property "Reference" "J" (at 1.27 5.08 0)
        (effects (font (size 1.27 1.27)))
      )
      (property "Value" "Conn_02x03_Odd_Even" (at 1.27 -5.08 0)
        (effects (font (size 1.27 1.27)))
      )
      (property "Footprint" "" (at 0 0 0)
        (effects (font (size 1.27 1.27)) hide)
      )
      (property "Datasheet" "~" (at 0 0 0)
        (effects (font (size 1.27 1.27)) hide)
      )
      (property "ki_keywords" "connector" (at 0 0 0)
        (effects (font (size 1.27 1.27)) hide)
      )
      (property "ki_description" "Generic connector, double row, 02x03, odd/even pin numbering scheme (row 1 odd numbers, row 2 even numbers), script generated (kicad-library-utils/schlib/autogen/connector/)" (at 0 0 0)
        (effects (font (size 1.27 1.27)) hide)
      )
      (property "ki_fp_filters" "Connector*:*_2x??_*" (at 0 0 0)
        (effects (font (size 1.27 1.27)) hide)
      )
      (symbol "Conn_02x03_Odd_Even_1_1"
        (rectangle (start -1.27 -2.413) (end 0 -2.667)
          (stroke (width 0.1524) (type default))
          (fill (type none))
        )
        (rectangle (start -1.27 0.127) (end 0 -0.127)
          (stroke (width 0.1524) (type default))
          (fill (type none))
        )
        (rectangle (start -1.27 2.667) (end 0 2.413)
          (stroke (width 0.1524) (type default))
          (fill (type none))
        )
        (rectangle (start -1.27 3.81) (end 3.81 -3.81)
          (stroke (width 0.254) (type default))
          (fill (type background))
        )
        (rectangle (start 3.81 -2.413) (end 2.54 -2.667)
          (stroke (width 0.1524) (type default))
          (fill (type none))
        )
        (rectangle (start 3.81 0.127) (end 2.54 -0.127)
          (stroke (width 0.1524) (type default))
          (fill (type none))
        )
        (rectangle (start 3.81 2.667) (end 2.54 2.413)
          (stroke (width 0.1524) (type default))
          (fill (type none))
        )
        (pin passive line (at -5.08 2.54 0) (length 3.81)
          (name "Pin_1" (effects (font (size 1.27 1.27))))
          (number "1" (effects (font (size 1.27 1.27))))
        )
        (pin passive line (at 7.62 2.54 180) (length 3.81)
          (name "Pin_2" (effects (font (size 1.27 1.27))))
          (number "2" (effects (font (size 1.27 1.27))))
        )
        (pin passive line (at -5.08 0 0) (length 3.81)
          (name "Pin_3" (effects (font (size 1.27 1.27))))
          (number "3" (effects (font (size 1.27 1.27))))
        )
        (pin passive line (at 7.62 0 180) (length 3.81)
          (name "Pin_4" (effects (font (size 1.27 1.27))))
          (number "4" (effects (font (size 1.27 1.27))))
        )
        (pin passive line (at -5.08 -2.54 0) (length 3.81)
          (name "Pin_5" (effects (font (size 1.27 1.27))))
          (number "5" (effects (font (size 1.27 1.27))))
        )
        (pin passive line (at 7.62 -2.54 180) (length 3.81)
          (name "Pin_6" (effects (font (size 1.27 1.27))))
          (number "6" (effects (font (size 1.27 1.27))))
        )
      )
    )
    (symbol "Device:Q_NMOS_GDS" (pin_names (offset 0) hide) (in_bom yes) (on_board yes)
      (property "Reference" "Q" (at 5.08 1.27 0)
        (effects (font (size 1.27 1.27)) (justify left))
      )
      (property "Value" "Q_NMOS_GDS" (at 5.08 -1.27 0)
        (effects (font (size 1.27 1.27)) (justify left))
      )
      (property "Footprint" "" (at 5.08 2.54 0)
        (effects (font (size 1.27 1.27)) hide)
      )
      (property "Datasheet" "~" (at 0 0 0)
        (effects (font (size 1.27 1.27)) hide)
      )
      (property "ki_keywords" "transistor NMOS N-MOS N-MOSFET" (at 0 0 0)
        (effects (font (size 1.27 1.27)) hide)
      )
      (property "ki_description" "N-MOSFET transistor, gate/drain/source" (at 0 0 0)
        (effects (font (size 1.27 1.27)) hide)
      )
      (symbol "Q_NMOS_GDS_0_1"
        (polyline
          (pts
            (xy 0.254 0)
            (xy -2.54 0)
          )
          (stroke (width 0) (type default))
          (fill (type none))
        )
        (polyline
          (pts
            (xy 0.254 1.905)
            (xy 0.254 -1.905)
          )
          (stroke (width 0.254) (type default))
          (fill (type none))
        )
        (polyline
          (pts
            (xy 0.762 -1.27)
            (xy 0.762 -2.286)
          )
          (stroke (width 0.254) (type default))
          (fill (type none))
        )
        (polyline
          (pts
            (xy 0.762 0.508)
            (xy 0.762 -0.508)
          )
          (stroke (width 0.254) (type default))
          (fill (type none))
        )
        (polyline
          (pts
            (xy 0.762 2.286)
            (xy 0.762 1.27)
          )
          (stroke (width 0.254) (type default))
          (fill (type none))
        )
        (polyline
          (pts
            (xy 2.54 2.54)
            (xy 2.54 1.778)
          )
          (stroke (width 0) (type default))
          (fill (type none))
        )
        (polyline
          (pts
            (xy 2.54 -2.54)
            (xy 2.54 0)
            (xy 0.762 0)
          )
          (stroke (width 0) (type default))
          (fill (type none))
        )
        (polyline
          (pts
            (xy 0.762 -1.778)
            (xy 3.302 -1.778)
            (xy 3.302 1.778)
            (xy 0.762 1.778)
          )
          (stroke (width 0) (type default))
          (fill (type none))
        )
        (polyline
          (pts
            (xy 1.016 0)
            (xy 2.032 0.381)
            (xy 2.032 -0.381)
            (xy 1.016 0)
          )
          (stroke (width 0) (type default))
          (fill (type outline))
        )
        (polyline
          (pts
            (xy 2.794 0.508)
            (xy 2.921 0.381)
            (xy 3.683 0.381)
            (xy 3.81 0.254)
          )
          (stroke (width 0) (type default))
          (fill (type none))
        )
        (polyline
          (pts
            (xy 3.302 0.381)
            (xy 2.921 -0.254)
            (xy 3.683 -0.254)
            (xy 3.302 0.381)
          )
          (stroke (width 0) (type default))
          (fill (type none))
        )
        (circle (center 1.651 0) (radius 2.794)
          (stroke (width 0.254) (type default))
          (fill (type none))
        )
        (circle (center 2.54 -1.778) (radius 0.254)
          (stroke (width 0) (type default))
          (fill (type outline))
        )
        (circle (center 2.54 1.778) (radius 0.254)
          (stroke (width 0) (type default))
          (fill (type outline))
        )
      )
      (symbol "Q_NMOS_GDS_1_1"
        (pin input line (at -5.08 0 0) (length 2.54)
          (name "G" (effects (font (size 1.27 1.27))))
          (number "1" (effects (font (size 1.27 1.27))))
        )
        (pin passive line (at 2.54 5.08 270) (length 2.54)
          (name "D" (effects (font (size 1.27 1.27))))
          (number "2" (effects (font (size 1.27 1.27))))
        )
        (pin passive line (at 2.54 -5.08 90) (length 2.54)
          (name "S" (effects (font (size 1.27 1.27))))
          (number "3" (effects (font (size 1.27 1.27))))
        )
      )
    )
    (symbol "Mechanical:MountingHole" (pin_names (offset 1.016)) (in_bom yes) (on_board yes)
      (property "Reference" "H" (at 0 5.08 0)
        (effects (font (size 1.27 1.27)))
      )
      (property "Value" "MountingHole" (at 0 3.175 0)
        (effects (font (size 1.27 1.27)))
      )
      (property "Footprint" "" (at 0 0 0)
        (effects (font (size 1.27 1.27)) hide)
      )
      (property "Datasheet" "~" (at 0 0 0)
        (effects (font (size 1.27 1.27)) hide)
      )
      (property "ki_keywords" "mounting hole" (at 0 0 0)
        (effects (font (size 1.27 1.27)) hide)
      )
      (property "ki_description" "Mounting Hole without connection" (at 0 0 0)
        (effects (font (size 1.27 1.27)) hide)
      )
      (property "ki_fp_filters" "MountingHole*" (at 0 0 0)
        (effects (font (size 1.27 1.27)) hide)
      )
      (symbol "MountingHole_0_1"
        (circle (center 0 0) (radius 1.27)
          (stroke (width 1.27) (type default))
          (fill (type none))
        )
      )
    )
    (symbol "power:+24V" (power) (pin_names (offset 0)) (in_bom yes) (on_board yes)
      (property "Reference" "#PWR" (at 0 -3.81 0)
        (effects (font (size 1.27 1.27)) hide)
      )
      (property "Value" "+24V" (at 0 3.556 0)
        (effects (font (size 1.27 1.27)))
      )
      (property "Footprint" "" (at 0 0 0)
        (effects (font (size 1.27 1.27)) hide)
      )
      (property "Datasheet" "" (at 0 0 0)
        (effects (font (size 1.27 1.27)) hide)
      )
      (property "ki_keywords" "power-flag" (at 0 0 0)
        (effects (font (size 1.27 1.27)) hide)
      )
      (property "ki_description" "Power symbol creates a global label with name \"+24V\"" (at 0 0 0)
        (effects (font (size 1.27 1.27)) hide)
      )
      (symbol "+24V_0_1"
        (polyline
          (pts
            (xy -0.762 1.27)
            (xy 0 2.54)
          )
          (stroke (width 0) (type default))
          (fill (type none))
        )
        (polyline
          (pts
            (xy 0 0)
            (xy 0 2.54)
          )
          (stroke (width 0) (type default))
          (fill (type none))
        )
        (polyline
          (pts
            (xy 0 2.54)
            (xy 0.762 1.27)
          )
          (stroke (width 0) (type default))
          (fill (type none))
        )
      )
      (symbol "+24V_1_1"
        (pin power_in line (at 0 0 90) (length 0) hide
          (name "+24V" (effects (font (size 1.27 1.27))))
          (number "1" (effects (font (size 1.27 1.27))))
        )
      )
    )
    (symbol "power:GND" (power) (pin_names (offset 0)) (in_bom yes) (on_board yes)
      (property "Reference" "#PWR" (at 0 -6.35 0)
        (effects (font (size 1.27 1.27)) hide)
      )
      (property "Value" "GND" (at 0 -3.81 0)
        (effects (font (size 1.27 1.27)))
      )
      (property "Footprint" "" (at 0 0 0)
        (effects (font (size 1.27 1.27)) hide)
      )
      (property "Datasheet" "" (at 0 0 0)
        (effects (font (size 1.27 1.27)) hide)
      )
      (property "ki_keywords" "power-flag" (at 0 0 0)
        (effects (font (size 1.27 1.27)) hide)
      )
      (property "ki_description" "Power symbol creates a global label with name \"GND\" , ground" (at 0 0 0)
        (effects (font (size 1.27 1.27)) hide)
      )
      (symbol "GND_0_1"
        (polyline
          (pts
            (xy 0 0)
            (xy 0 -1.27)
            (xy 1.27 -1.27)
            (xy 0 -2.54)
            (xy -1.27 -1.27)
            (xy 0 -1.27)
          )
          (stroke (width 0) (type default))
          (fill (type none))
        )
      )
      (symbol "GND_1_1"
        (pin power_in line (at 0 0 270) (length 0) hide
          (name "GND" (effects (font (size 1.27 1.27))))
          (number "1" (effects (font (size 1.27 1.27))))
        )
      )
    )
  )


  (global_label "QHBED" (shape input) (at 53.34 58.42 180) (fields_autoplaced)
    (effects (font (size 1.27 1.27)) (justify right))
    (uuid 0867ea61-bd21-4888-aba5-b55c17cb4dd4)
    (property "Intersheetrefs" "${INTERSHEET_REFS}" (at 44.5769 58.3406 0)
      (effects (font (size 1.27 1.27)) (justify right) hide)
    )
  )
  (global_label "TQHBED" (shape input) (at 59.69 74.93 180) (fields_autoplaced)
    (effects (font (size 1.27 1.27)) (justify right))
    (uuid 1e015778-6778-4190-9887-1553ab16d136)
    (property "Intersheetrefs" "${INTERSHEET_REFS}" (at 49.9593 74.8506 0)
      (effects (font (size 1.27 1.27)) (justify right) hide)
    )
  )
  (global_label "TQHBED" (shape input) (at 66.04 45.72 0) (fields_autoplaced)
    (effects (font (size 1.27 1.27)) (justify left))
    (uuid 2f1f998d-65d3-4d69-84f0-ea7a7bd315f1)
    (property "Intersheetrefs" "${INTERSHEET_REFS}" (at 75.7707 45.6406 0)
      (effects (font (size 1.27 1.27)) (justify left) hide)
    )
  )
  (global_label "THBED" (shape input) (at 66.04 55.88 0) (fields_autoplaced)
    (effects (font (size 1.27 1.27)) (justify left))
    (uuid 5670938a-72b4-4b2c-8214-8529a19f833d)
    (property "Intersheetrefs" "${INTERSHEET_REFS}" (at 74.4402 55.8006 0)
      (effects (font (size 1.27 1.27)) (justify left) hide)
    )
  )
  (global_label "THBED" (shape input) (at 66.04 48.26 0) (fields_autoplaced)
    (effects (font (size 1.27 1.27)) (justify left))
    (uuid b6ba6428-4c23-452a-b76d-d4d2c6ca87b9)
    (property "Intersheetrefs" "${INTERSHEET_REFS}" (at 74.4402 48.1806 0)
      (effects (font (size 1.27 1.27)) (justify left) hide)
    )
  )
  (global_label "QHBED" (shape input) (at 53.34 55.88 180) (fields_autoplaced)
    (effects (font (size 1.27 1.27)) (justify right))
    (uuid bdbb0fd5-0a3c-4a21-8e29-02fced5056c0)
    (property "Intersheetrefs" "${INTERSHEET_REFS}" (at 44.5769 55.8006 0)
      (effects (font (size 1.27 1.27)) (justify right) hide)
    )
  )
  (global_label "QHBED" (shape input) (at 54.61 67.31 180) (fields_autoplaced)
    (effects (font (size 1.27 1.27)) (justify right))
    (uuid d33a6b4e-bb1a-4122-bd73-f08cbed9a0cd)
    (property "Intersheetrefs" "${INTERSHEET_REFS}" (at 45.8469 67.2306 0)
      (effects (font (size 1.27 1.27)) (justify right) hide)
    )
  )

  (symbol (lib_id "power:+24V") (at 53.34 45.72 90) (unit 1)
    (in_bom yes) (on_board yes) (dnp no)
    (uuid 1b8cfc6e-2afc-4d5b-80fd-2ae5d78518b3)
    (property "Reference" "#PWR0178" (at 57.15 45.72 0)
      (effects (font (size 1.27 1.27)) hide)
    )
    (property "Value" "+24V" (at 44.45 45.72 90)
      (effects (font (size 1.27 1.27)) (justify right))
    )
    (property "Footprint" "" (at 53.34 45.72 0)
      (effects (font (size 1.27 1.27)) hide)
    )
    (property "Datasheet" "" (at 53.34 45.72 0)
      (effects (font (size 1.27 1.27)) hide)
    )
    (pin "1" (uuid 8928a94c-1fd5-4d86-96c9-1508df091d4c))
    (instances
      (project "bed"
        (path "/02785f37-2867-4472-8c4a-8de07b9d1e78"
          (reference "#PWR0178") (unit 1)
        )
      )
    )
  )

  (symbol (lib_id "power:GND") (at 64.77 67.31 90) (unit 1)
    (in_bom yes) (on_board yes) (dnp no)
    (uuid 6783eaf2-c118-41c6-a958-34de886346ea)
    (property "Reference" "#PWR0176" (at 71.12 67.31 0)
      (effects (font (size 1.27 1.27)) hide)
    )
    (property "Value" "GND" (at 72.39 67.31 90)
      (effects (font (size 1.27 1.27)) (justify left))
    )
    (property "Footprint" "" (at 64.77 67.31 0)
      (effects (font (size 1.27 1.27)) hide)
    )
    (property "Datasheet" "" (at 64.77 67.31 0)
      (effects (font (size 1.27 1.27)) hide)
    )
    (pin "1" (uuid 54cfb1b5-981d-4aa4-8684-05936d91351e))
    (instances
      (project "bed"
        (path "/02785f37-2867-4472-8c4a-8de07b9d1e78"
          (reference "#PWR0176") (unit 1)
        )
      )
    )
  )

  (symbol (lib_id "power:+24V") (at 53.34 53.34 90) (unit 1)
    (in_bom yes) (on_board yes) (dnp no)
    (uuid 82adcee1-7372-4330-8bb8-774cbbad664c)
    (property "Reference" "#PWR0179" (at 57.15 53.34 0)
      (effects (font (size 1.27 1.27)) hide)
    )
    (property "Value" "+24V" (at 44.45 53.34 90)
      (effects (font (size 1.27 1.27)) (justify right))
    )
    (property "Footprint" "" (at 53.34 53.34 0)
      (effects (font (size 1.27 1.27)) hide)
    )
    (property "Datasheet" "" (at 53.34 53.34 0)
      (effects (font (size 1.27 1.27)) hide)
    )
    (pin "1" (uuid 266c4a6a-ce4e-4d77-bbae-3e9563409ee0))
    (instances
      (project "bed"
        (path "/02785f37-2867-4472-8c4a-8de07b9d1e78"
          (reference "#PWR0179") (unit 1)
        )
      )
    )
  )

  (symbol (lib_id "Mechanical:MountingHole") (at 59.69 62.23 0) (unit 1)
    (in_bom yes) (on_board yes) (dnp no) (fields_autoplaced)
    (uuid 87dc58f5-114d-46a7-8bbb-cd42e6f74fbe)
    (property "Reference" "H_BED_1" (at 62.23 60.9599 0)
      (effects (font (size 1.27 1.27)) (justify left))
    )
    (property "Value" "MountingHole" (at 62.23 63.4999 0)
      (effects (font (size 1.27 1.27)) (justify left))
    )
    (property "Footprint" "MountingHole:MountingHole_5.3mm_M5" (at 59.69 62.23 0)
      (effects (font (size 1.27 1.27)) hide)
    )
    (property "Datasheet" "~" (at 59.69 62.23 0)
      (effects (font (size 1.27 1.27)) hide)
    )
    (instances
      (project "bed"
        (path "/02785f37-2867-4472-8c4a-8de07b9d1e78"
          (reference "H_BED_1") (unit 1)
        )
      )
    )
  )

  (symbol (lib_id "power:GND") (at 66.04 58.42 90) (unit 1)
    (in_bom yes) (on_board yes) (dnp no)
    (uuid 96557088-b114-41be-8801-83a41d1d0a70)
    (property "Reference" "#PWR0175" (at 72.39 58.42 0)
      (effects (font (size 1.27 1.27)) hide)
    )
    (property "Value" "GND" (at 73.66 58.42 90)
      (effects (font (size 1.27 1.27)) (justify left))
    )
    (property "Footprint" "" (at 66.04 58.42 0)
      (effects (font (size 1.27 1.27)) hide)
    )
    (property "Datasheet" "" (at 66.04 58.42 0)
      (effects (font (size 1.27 1.27)) hide)
    )
    (pin "1" (uuid f4f0674e-125a-42c9-8f08-fd99f35392c3))
    (instances
      (project "bed"
        (path "/02785f37-2867-4472-8c4a-8de07b9d1e78"
          (reference "#PWR0175") (unit 1)
        )
      )
    )
  )

  (symbol (lib_id "Connector_Generic:Conn_02x03_Odd_Even") (at 60.96 55.88 180) (unit 1)
    (in_bom yes) (on_board yes) (dnp no)
    (uuid ac108eb1-3de1-4e27-bdaa-b89503a9ec67)
    (property "Reference" "TO_BED_1" (at 59.69 57.15 90)
      (effects (font (size 1.27 1.27)))
    )
    (property "Value" "Conn_02x03_Odd_Even" (at 59.69 49.53 0)
      (effects (font (size 1.27 1.27)) hide)
    )
    (property "Footprint" "DRV8825:MOLEXMICROFIT_2x3" (at 60.96 55.88 0)
      (effects (font (size 1.27 1.27)) hide)
    )
    (property "Datasheet" "~" (at 60.96 55.88 0)
      (effects (font (size 1.27 1.27)) hide)
    )
    (pin "1" (uuid 36e0a0e4-8e61-47e5-a63a-e7da729427b4))
    (pin "2" (uuid 4998049c-2d33-4a91-9f5f-d6ab7e97378e))
    (pin "3" (uuid 9ef0894f-0ed9-4d1a-ae7d-4eafa5acaa08))
    (pin "4" (uuid 1f46a00b-ddb9-49c7-8903-78f19a6873f6))
    (pin "5" (uuid 0393c5ae-41f2-4a3f-8e44-68d0652ab653))
    (pin "6" (uuid 5e34101e-9373-4c18-b4c0-9ac51b3eaf18))
    (instances
      (project "bed"
        (path "/02785f37-2867-4472-8c4a-8de07b9d1e78"
          (reference "TO_BED_1") (unit 1)
        )
      )
    )
  )

  (symbol (lib_id "power:GND") (at 53.34 48.26 270) (unit 1)
    (in_bom yes) (on_board yes) (dnp no)
    (uuid ce4a8e35-9e42-408a-8e2e-06c5c956f483)
    (property "Reference" "#PWR0180" (at 46.99 48.26 0)
      (effects (font (size 1.27 1.27)) hide)
    )
    (property "Value" "GND" (at 45.72 48.26 90)
      (effects (font (size 1.27 1.27)) (justify left))
    )
    (property "Footprint" "" (at 53.34 48.26 0)
      (effects (font (size 1.27 1.27)) hide)
    )
    (property "Datasheet" "" (at 53.34 48.26 0)
      (effects (font (size 1.27 1.27)) hide)
    )
    (pin "1" (uuid f3817d5c-9e7a-452a-97b0-1b94e0105333))
    (instances
      (project "bed"
        (path "/02785f37-2867-4472-8c4a-8de07b9d1e78"
          (reference "#PWR0180") (unit 1)
        )
      )
    )
  )

  (symbol (lib_id "Connector_Generic:Conn_02x02_Top_Bottom") (at 58.42 48.26 0) (mirror x) (unit 1)
    (in_bom yes) (on_board yes) (dnp no)
    (uuid d8527f5d-de07-4b3d-8cb4-7f47e82f2b03)
    (property "Reference" "BED_OUT_1" (at 59.69 46.99 0)
      (effects (font (size 1.27 1.27)))
    )
    (property "Value" "Conn_02x02_Odd_Even" (at 59.69 52.07 0)
      (effects (font (size 1.27 1.27)) hide)
    )
    (property "Footprint" "DRV8825:MICROFIT_2x2" (at 58.42 48.26 0)
      (effects (font (size 1.27 1.27)) hide)
    )
    (property "Datasheet" "~" (at 58.42 48.26 0)
      (effects (font (size 1.27 1.27)) hide)
    )
    (pin "1" (uuid 970b7fa8-8481-4f6c-a302-145ab714b700))
    (pin "2" (uuid b4c56150-6768-44a1-baf3-2e024017412f))
    (pin "3" (uuid 9c29873d-bb58-4f16-a1f8-ab9d64572a24))
    (pin "4" (uuid defad006-3e61-459a-a9da-c653eb3295de))
    (instances
      (project "bed"
        (path "/02785f37-2867-4472-8c4a-8de07b9d1e78"
          (reference "BED_OUT_1") (unit 1)
        )
      )
    )
  )

  (symbol (lib_id "Device:Q_NMOS_GDS") (at 59.69 69.85 90) (unit 1)
    (in_bom yes) (on_board yes) (dnp no)
    (uuid e9bad32b-71c6-4efc-b582-db6030f6a1b8)
    (property "Reference" "Q_BED_1" (at 57.15 72.39 90)
      (effects (font (size 1.27 1.27)) (justify left))
    )
    (property "Value" "Q_NPN_EBC" (at 60.9599 63.5 0)
      (effects (font (size 1.27 1.27)) (justify left) hide)
    )
    (property "Footprint" "Package_TO_SOT_THT:TO-220-3_Vertical" (at 57.15 64.77 0)
      (effects (font (size 1.27 1.27)) hide)
    )
    (property "Datasheet" "~" (at 59.69 69.85 0)
      (effects (font (size 1.27 1.27)) hide)
    )
    (property "Part" "TRANSISTOR MOSFET CANAL N - IRL520N" (at 59.69 69.85 90)
      (effects (font (size 1.27 1.27)) hide)
    )
    (pin "1" (uuid fb324191-9ab1-44f6-b085-ad5cb30303f5))
    (pin "2" (uuid 9c75dfad-08e7-4749-809e-0f61204b732b))
    (pin "3" (uuid 3a98c05e-9cb7-4858-ad17-20e1311991b1))
    (instances
      (project "bed"
        (path "/02785f37-2867-4472-8c4a-8de07b9d1e78"
          (reference "Q_BED_1") (unit 1)
        )
      )
    )
  )

  (symbol (lib_id "power:+24V") (at 66.04 53.34 270) (unit 1)
    (in_bom yes) (on_board yes) (dnp no)
    (uuid ee1e403d-353f-4623-a50a-ce15dc3a38ca)
    (property "Reference" "#PWR0177" (at 62.23 53.34 0)
      (effects (font (size 1.27 1.27)) hide)
    )
    (property "Value" "+24V" (at 74.93 53.34 90)
      (effects (font (size 1.27 1.27)) (justify right))
    )
    (property "Footprint" "" (at 66.04 53.34 0)
      (effects (font (size 1.27 1.27)) hide)
    )
    (property "Datasheet" "" (at 66.04 53.34 0)
      (effects (font (size 1.27 1.27)) hide)
    )
    (pin "1" (uuid e44c0679-f1d9-436f-ae32-7aba9e8bbeef))
    (instances
      (project "bed"
        (path "/02785f37-2867-4472-8c4a-8de07b9d1e78"
          (reference "#PWR0177") (unit 1)
        )
      )
    )
  )

  (sheet_instances
    (path "/" (page "1"))
  )
)
